[url=http://plemiona-planer.pl/pl/overview/lJo7gvBVQwJpjUmpQs7SRQ24kcCNCf8TBo5Tu_TCWHE]Link do Twoich celów na plemiona-planer.pl.[/url]


[table][**][||]WYŚLIJ[||]OFF[||]GRUBE[||]WYSYŁKA[||]WEJŚCIE[||]Z WIOSKI[||]CEL[/**][*]1[|][url=https://pl165.plemiona.pl/game.php?village=26064&screen=place&target=34702]Wyślij OFF[/url][|]12802[|]0[|]2021-11-28
[b][color=#0e5e5e]08:47:32[/color][/b]-[b][color=#ff0000]13:47:32[/color][/b][|]2021-12-03
[b][color=#0e5e5e]08:00:00[/color][/b]-[b][color=#ff0000]13:00:00[/color][/b][|][coord]618|531[/coord][|][coord]507|320[/coord][*]2[|][url=https://pl165.plemiona.pl/game.php?village=15349&screen=place&target=29033]Wyślij OFF[/url][|]13262[|]0[|]2021-11-28
[b][color=#0e5e5e]09:36:01[/color][/b]-[b][color=#ff0000]14:36:01[/color][/b][|]2021-12-03
[b][color=#0e5e5e]08:00:00[/color][/b]-[b][color=#ff0000]13:00:00[/color][/b][|][coord]619|539[/coord][|][coord]504|332[/coord][*]3[|][url=https://pl165.plemiona.pl/game.php?village=18141&screen=place&target=30999]Wyślij OFF[/url][|]20513[|]0[|]2021-11-28
[b][color=#0e5e5e]10:10:34[/color][/b]-[b][color=#ff0000]15:10:34[/color][/b][|]2021-12-03
[b][color=#0e5e5e]08:00:00[/color][/b]-[b][color=#ff0000]13:00:00[/color][/b][|][coord]627|541[/coord][|][coord]504|340[/coord][*]4[|][url=https://pl165.plemiona.pl/game.php?village=20953&screen=place&target=28602]Wyślij OFF[/url][|]18664[|]0[|]2021-11-28
[b][color=#0e5e5e]11:01:40[/color][/b]-[b][color=#ff0000]16:01:40[/color][/b][|]2021-12-03
[b][color=#0e5e5e]08:00:00[/color][/b]-[b][color=#ff0000]13:00:00[/color][/b][|][coord]631|533[/coord][|][coord]508|334[/coord][*]5[|][url=https://pl165.plemiona.pl/game.php?village=15980&screen=place&target=29389]Wyślij OFF[/url][|]20513[|]0[|]2021-11-28
[b][color=#0e5e5e]11:38:19[/color][/b]-[b][color=#ff0000]16:38:19[/color][/b][|]2021-12-03
[b][color=#0e5e5e]08:00:00[/color][/b]-[b][color=#ff0000]13:00:00[/color][/b][|][coord]618|540[/coord][|][coord]506|336[/coord][*]6[|][url=https://pl165.plemiona.pl/game.php?village=16690&screen=place&target=27974]Wyślij OFF[/url][|]20497[|]0[|]2021-11-28
[b][color=#0e5e5e]12:34:56[/color][/b]-[b][color=#ff0000]17:34:56[/color][/b][|]2021-12-03
[b][color=#0e5e5e]08:00:00[/color][/b]-[b][color=#ff0000]13:00:00[/color][/b][|][coord]619|544[/coord][|][coord]521|335[/coord][*]7[|][url=https://pl165.plemiona.pl/game.php?village=18633&screen=place&target=33227]Wyślij OFF[/url][|]17035[|]0[|]2021-11-28
[b][color=#0e5e5e]12:36:18[/color][/b]-[b][color=#ff0000]17:36:18[/color][/b][|]2021-12-03
[b][color=#0e5e5e]08:00:00[/color][/b]-[b][color=#ff0000]13:00:00[/color][/b][|][coord]634|532[/coord][|][coord]534|324[/coord][*]8[|][url=https://pl165.plemiona.pl/game.php?village=14537&screen=place&target=37399]Wyślij OFF[/url][|]13559[|]0[|]2021-11-28
[b][color=#0e5e5e]12:57:31[/color][/b]-[b][color=#ff0000]17:57:31[/color][/b][|]2021-12-03
[b][color=#0e5e5e]08:00:00[/color][/b]-[b][color=#ff0000]13:00:00[/color][/b][|][coord]618|532[/coord][|][coord]531|319[/coord][*]9[|][url=https://pl165.plemiona.pl/game.php?village=21450&screen=place&target=32681]Wyślij OFF[/url][|]20020[|]0[|]2021-11-28
[b][color=#0e5e5e]13:04:50[/color][/b]-[b][color=#ff0000]18:04:50[/color][/b][|]2021-12-03
[b][color=#0e5e5e]08:00:00[/color][/b]-[b][color=#ff0000]13:00:00[/color][/b][|][coord]641|525[/coord][|][coord]526|326[/coord][*]10[|][url=https://pl165.plemiona.pl/game.php?village=21762&screen=place&target=32732]Wyślij OFF[/url][|]20017[|]0[|]2021-11-28
[b][color=#0e5e5e]13:11:37[/color][/b]-[b][color=#ff0000]18:11:37[/color][/b][|]2021-12-03
[b][color=#0e5e5e]08:00:00[/color][/b]-[b][color=#ff0000]13:00:00[/color][/b][|][coord]639|525[/coord][|][coord]528|324[/coord][*]11[|][url=https://pl165.plemiona.pl/game.php?village=17003&screen=place&target=36785]Wyślij OFF[/url][|]22549[|]0[|]2021-11-28
[b][color=#0e5e5e]13:14:02[/color][/b]-[b][color=#ff0000]18:14:02[/color][/b][|]2021-12-03
[b][color=#0e5e5e]08:00:00[/color][/b]-[b][color=#ff0000]13:00:00[/color][/b][|][coord]621|534[/coord][|][coord]538|320[/coord][*]12[|][url=https://pl165.plemiona.pl/game.php?village=13283&screen=place&target=33691]Wyślij OFF[/url][|]13266[|]0[|]2021-11-28
[b][color=#0e5e5e]13:17:10[/color][/b]-[b][color=#ff0000]18:17:10[/color][/b][|]2021-12-03
[b][color=#0e5e5e]08:00:00[/color][/b]-[b][color=#ff0000]13:00:00[/color][/b][|][coord]612|533[/coord][|][coord]511|327[/coord][*]13[|][url=https://pl165.plemiona.pl/game.php?village=15320&screen=place&target=24138]Wyślij OFF[/url][|]20513[|]0[|]2021-11-28
[b][color=#0e5e5e]13:56:43[/color][/b]-[b][color=#ff0000]18:56:43[/color][/b][|]2021-12-03
[b][color=#0e5e5e]08:00:00[/color][/b]-[b][color=#ff0000]13:00:00[/color][/b][|][coord]617|542[/coord][|][coord]502|345[/coord][*]14[|][url=https://pl165.plemiona.pl/game.php?village=12419&screen=place&target=36733]Wyślij OFF[/url][|]17350[|]0[|]2021-11-28
[b][color=#0e5e5e]14:16:52[/color][/b]-[b][color=#ff0000]19:16:52[/color][/b][|]2021-12-03
[b][color=#0e5e5e]08:00:00[/color][/b]-[b][color=#ff0000]13:00:00[/color][/b][|][coord]612|528[/coord][|][coord]520|320[/coord][*]15[|][url=https://pl165.plemiona.pl/game.php?village=20999&screen=place&target=32795]Wyślij OFF[/url][|]15817[|]0[|]2021-11-28
[b][color=#0e5e5e]14:26:50[/color][/b]-[b][color=#ff0000]19:26:50[/color][/b][|]2021-12-03
[b][color=#0e5e5e]08:00:00[/color][/b]-[b][color=#ff0000]13:00:00[/color][/b][|][coord]625|536[/coord][|][coord]541|325[/coord][*]16[|][url=https://pl165.plemiona.pl/game.php?village=13427&screen=place&target=34600]Wyślij OFF[/url][|]16976[|]0[|]2021-11-28
[b][color=#0e5e5e]14:44:17[/color][/b]-[b][color=#ff0000]19:44:17[/color][/b][|]2021-12-03
[b][color=#0e5e5e]08:00:00[/color][/b]-[b][color=#ff0000]13:00:00[/color][/b][|][coord]615|526[/coord][|][coord]523|319[/coord][*]17[|][url=https://pl165.plemiona.pl/game.php?village=17955&screen=place&target=29571]Wyślij OFF[/url][|]20513[|]0[|]2021-11-28
[b][color=#0e5e5e]14:48:28[/color][/b]-[b][color=#ff0000]19:48:28[/color][/b][|]2021-12-03
[b][color=#0e5e5e]08:00:00[/color][/b]-[b][color=#ff0000]13:00:00[/color][/b][|][coord]627|545[/coord][|][coord]540|336[/coord][*]18[|][url=https://pl165.plemiona.pl/game.php?village=14449&screen=place&target=27840]Wyślij OFF[/url][|]12187[|]0[|]2021-11-28
[b][color=#0e5e5e]15:07:42[/color][/b]-[b][color=#ff0000]20:07:42[/color][/b][|]2021-12-03
[b][color=#0e5e5e]08:00:00[/color][/b]-[b][color=#ff0000]13:00:00[/color][/b][|][coord]616|534[/coord][|][coord]504|338[/coord][*]19[|][url=https://pl165.plemiona.pl/game.php?village=18774&screen=place&target=22262]Wyślij OFF[/url][|]20513[|]0[|]2021-11-28
[b][color=#0e5e5e]15:23:40[/color][/b]-[b][color=#ff0000]20:23:40[/color][/b][|]2021-12-03
[b][color=#0e5e5e]08:00:00[/color][/b]-[b][color=#ff0000]13:00:00[/color][/b][|][coord]628|538[/coord][|][coord]504|350[/coord][*]20[|][url=https://pl165.plemiona.pl/game.php?village=17416&screen=place&target=23655]Wyślij OFF[/url][|]20513[|]0[|]2021-11-28
[b][color=#0e5e5e]15:34:48[/color][/b]-[b][color=#ff0000]20:34:48[/color][/b][|]2021-12-03
[b][color=#0e5e5e]08:00:00[/color][/b]-[b][color=#ff0000]13:00:00[/color][/b][|][coord]627|537[/coord][|][coord]510|345[/coord][*]21[|][url=https://pl165.plemiona.pl/game.php?village=20653&screen=place&target=26550]Wyślij OFF[/url][|]18716[|]0[|]2021-11-28
[b][color=#0e5e5e]16:29:48[/color][/b]-[b][color=#ff0000]21:29:48[/color][/b][|]2021-12-03
[b][color=#0e5e5e]08:00:00[/color][/b]-[b][color=#ff0000]13:00:00[/color][/b][|][coord]635|527[/coord][|][coord]509|343[/coord][*]22[|][url=https://pl165.plemiona.pl/game.php?village=14164&screen=place&target=34480]Wyślij OFF[/url][|]15418[|]0[|]2021-11-28
[b][color=#0e5e5e]16:38:01[/color][/b]-[b][color=#ff0000]21:38:01[/color][/b][|]2021-12-03
[b][color=#0e5e5e]08:00:00[/color][/b]-[b][color=#ff0000]13:00:00[/color][/b][|][coord]616|529[/coord][|][coord]539|320[/coord][*]23[|][url=https://pl165.plemiona.pl/game.php?village=12657&screen=place&target=37298]Wyślij OFF[/url][|]17050[|]0[|]2021-11-28
[b][color=#0e5e5e]17:30:20[/color][/b]-[b][color=#ff0000]22:30:20[/color][/b][|]2021-12-03
[b][color=#0e5e5e]08:00:00[/color][/b]-[b][color=#ff0000]13:00:00[/color][/b][|][coord]616|526[/coord][|][coord]536|320[/coord][*]24[|][url=https://pl165.plemiona.pl/game.php?village=12429&screen=place&target=34480]Wyślij OFF[/url][|]17069[|]0[|]2021-11-28
[b][color=#0e5e5e]18:09:09[/color][/b]-[b][color=#ff0000]23:09:09[/color][/b][|]2021-12-03
[b][color=#0e5e5e]08:00:00[/color][/b]-[b][color=#ff0000]13:00:00[/color][/b][|][coord]618|525[/coord][|][coord]539|320[/coord][*]25[|][url=https://pl165.plemiona.pl/game.php?village=3175&screen=place&target=27840]Wyślij OFF[/url][|]16445[|]0[|]2021-11-28
[b][color=#0e5e5e]18:13:39[/color][/b]-[b][color=#ff0000]23:13:39[/color][/b][|]2021-12-03
[b][color=#0e5e5e]08:00:00[/color][/b]-[b][color=#ff0000]13:00:00[/color][/b][|][coord]614|528[/coord][|][coord]504|338[/coord][*]26[|][url=https://pl165.plemiona.pl/game.php?village=18812&screen=place&target=23767]Wyślij OFF[/url][|]15415[|]0[|]2021-11-28
[b][color=#0e5e5e]18:34:52[/color][/b]-[b][color=#ff0000]23:34:52[/color][/b][|]2021-12-03
[b][color=#0e5e5e]08:00:00[/color][/b]-[b][color=#ff0000]13:00:00[/color][/b][|][coord]635|528[/coord][|][coord]512|347[/coord][*]27[|][url=https://pl165.plemiona.pl/game.php?village=12515&screen=place&target=27840]Wyślij OFF[/url][|]17028[|]0[|]2021-11-28
[b][color=#0e5e5e]18:49:16[/color][/b]-[b][color=#ff0000]23:49:16[/color][/b][|]2021-12-03
[b][color=#0e5e5e]08:00:00[/color][/b]-[b][color=#ff0000]13:00:00[/color][/b][|][coord]608|530[/coord][|][coord]504|338[/coord][*]28[|][url=https://pl165.plemiona.pl/game.php?village=18682&screen=place&target=26469]Wyślij OFF[/url][|]20217[|]0[|]2021-11-28
[b][color=#0e5e5e]19:06:12[/color][/b]-[b][color=#ff0000]00:06:12[/color][/b][|]2021-12-03
[b][color=#0e5e5e]08:00:00[/color][/b]-[b][color=#ff0000]13:00:00[/color][/b][|][coord]630|537[/coord][|][coord]533|342[/coord][*]29[|][url=https://pl165.plemiona.pl/game.php?village=14560&screen=place&target=28633]Wyślij OFF[/url][|]18738[|]0[|]2021-11-28
[b][color=#0e5e5e]19:14:36[/color][/b]-[b][color=#ff0000]00:14:36[/color][/b][|]2021-12-03
[b][color=#0e5e5e]08:00:00[/color][/b]-[b][color=#ff0000]13:00:00[/color][/b][|][coord]618|521[/coord][|][coord]502|337[/coord][*]30[|][url=https://pl165.plemiona.pl/game.php?village=18134&screen=place&target=31047]Wyślij OFF[/url][|]17047[|]0[|]2021-11-28
[b][color=#0e5e5e]19:27:31[/color][/b]-[b][color=#ff0000]00:27:31[/color][/b][|]2021-12-03
[b][color=#0e5e5e]08:00:00[/color][/b]-[b][color=#ff0000]13:00:00[/color][/b][|][coord]615|527[/coord][|][coord]526|329[/coord][*]31[|][url=https://pl165.plemiona.pl/game.php?village=51250&screen=place&target=26474]Wyślij OFF[/url][|]20513[|]0[|]2021-11-29
[b][color=#0e5e5e]07:05:06[/color][/b]-[b][color=#ff0000]12:05:06[/color][/b][|]2021-12-03
[b][color=#0e5e5e]08:00:00[/color][/b]-[b][color=#ff0000]13:00:00[/color][/b][|][coord]700|419[/coord][|][coord]523|340[/coord][*]32[|][url=https://pl165.plemiona.pl/game.php?village=43726&screen=place&target=32340]Wyślij OFF[/url][|]20513[|]0[|]2021-11-29
[b][color=#0e5e5e]07:10:27[/color][/b]-[b][color=#ff0000]12:10:27[/color][/b][|]2021-12-03
[b][color=#0e5e5e]08:00:00[/color][/b]-[b][color=#ff0000]13:00:00[/color][/b][|][coord]676|412[/coord][|][coord]502|327[/coord][/table]





[table][**][||]WYŚLIJ[||]OFF[||]GRUBE[||]WYSYŁKA[||]WEJŚCIE[||]Z WIOSKI[||]CEL[/**][*]33[|][url=https://pl165.plemiona.pl/game.php?village=50858&screen=place&target=27600]Wyślij OFF[/url][|]20513[|]0[|]2021-11-29
[b][color=#0e5e5e]07:13:56[/color][/b]-[b][color=#ff0000]12:13:56[/color][/b][|]2021-12-03
[b][color=#0e5e5e]08:00:00[/color][/b]-[b][color=#ff0000]13:00:00[/color][/b][|][coord]695|397[/coord][|][coord]511|337[/coord][*]34[|][url=https://pl165.plemiona.pl/game.php?village=6822&screen=place&target=25920]Wyślij OFF[/url][|]16451[|]0[|]2021-11-29
[b][color=#0e5e5e]07:20:36[/color][/b]-[b][color=#ff0000]12:20:36[/color][/b][|]2021-12-03
[b][color=#0e5e5e]08:00:00[/color][/b]-[b][color=#ff0000]13:00:00[/color][/b][|][coord]616|528[/coord][|][coord]543|349[/coord][*]35[|][url=https://pl165.plemiona.pl/game.php?village=13918&screen=place&target=26778]Wyślij OFF[/url][|]14403[|]0[|]2021-11-29
[b][color=#0e5e5e]07:26:02[/color][/b]-[b][color=#ff0000]12:26:02[/color][/b][|]2021-12-03
[b][color=#0e5e5e]08:00:00[/color][/b]-[b][color=#ff0000]13:00:00[/color][/b][|][coord]615|529[/coord][|][coord]545|349[/coord][*]36[|][url=https://pl165.plemiona.pl/game.php?village=19260&screen=place&target=18158]Wyślij OFF[/url][|]19935[|]0[|]2021-11-29
[b][color=#0e5e5e]07:27:12[/color][/b]-[b][color=#ff0000]12:27:12[/color][/b][|]2021-12-03
[b][color=#0e5e5e]08:00:00[/color][/b]-[b][color=#ff0000]13:00:00[/color][/b][|][coord]637|526[/coord][|][coord]526|368[/coord][*]37[|][url=https://pl165.plemiona.pl/game.php?village=44734&screen=place&target=35056]Wyślij OFF[/url][|]20513[|]0[|]2021-11-29
[b][color=#0e5e5e]07:47:21[/color][/b]-[b][color=#ff0000]12:47:21[/color][/b][|]2021-12-03
[b][color=#0e5e5e]08:00:00[/color][/b]-[b][color=#ff0000]13:00:00[/color][/b][|][coord]686|419[/coord][|][coord]521|320[/coord][*]38[|][url=https://pl165.plemiona.pl/game.php?village=49142&screen=place&target=26550]Wyślij OFF[/url][|]20479[|]0[|]2021-11-29
[b][color=#0e5e5e]07:50:01[/color][/b]-[b][color=#ff0000]12:50:01[/color][/b][|]2021-12-03
[b][color=#0e5e5e]08:00:00[/color][/b]-[b][color=#ff0000]13:00:00[/color][/b][|][coord]693|399[/coord][|][coord]509|343[/coord][*]39[|][url=https://pl165.plemiona.pl/game.php?village=17773&screen=place&target=13903]Wyślij OFF[/url][|]20513[|]0[|]2021-11-29
[b][color=#0e5e5e]08:23:48[/color][/b]-[b][color=#ff0000]13:23:48[/color][/b][|]2021-12-03
[b][color=#0e5e5e]08:00:00[/color][/b]-[b][color=#ff0000]13:00:00[/color][/b][|][coord]626|535[/coord][|][coord]510|383[/coord][*]40[|][url=https://pl165.plemiona.pl/game.php?village=10880&screen=place&target=25746]Wyślij OFF[/url][|]17057[|]0[|]2021-11-29
[b][color=#0e5e5e]08:51:43[/color][/b]-[b][color=#ff0000]13:51:43[/color][/b][|]2021-12-03
[b][color=#0e5e5e]08:00:00[/color][/b]-[b][color=#ff0000]13:00:00[/color][/b][|][coord]618|526[/coord][|][coord]541|352[/coord][*]41[|][url=https://pl165.plemiona.pl/game.php?village=17192&screen=place&target=17992]Wyślij OFF[/url][|]20513[|]0[|]2021-11-29
[b][color=#0e5e5e]08:56:27[/color][/b]-[b][color=#ff0000]13:56:27[/color][/b][|]2021-12-03
[b][color=#0e5e5e]08:00:00[/color][/b]-[b][color=#ff0000]13:00:00[/color][/b][|][coord]618|546[/coord][|][coord]537|374[/coord][*]42[|][url=https://pl165.plemiona.pl/game.php?village=41582&screen=place&target=30839]Wyślij OFF[/url][|]20513[|]0[|]2021-11-29
[b][color=#0e5e5e]08:59:55[/color][/b]-[b][color=#ff0000]13:59:55[/color][/b][|]2021-12-03
[b][color=#0e5e5e]08:00:00[/color][/b]-[b][color=#ff0000]13:00:00[/color][/b][|][coord]676|402[/coord][|][coord]501|328[/coord][*]43[|][url=https://pl165.plemiona.pl/game.php?village=13974&screen=place&target=34467]Wyślij OFF[/url][|]20513[|]0[|]2021-11-29
[b][color=#0e5e5e]09:03:05[/color][/b]-[b][color=#ff0000]14:03:05[/color][/b][|]2021-12-03
[b][color=#0e5e5e]08:00:00[/color][/b]-[b][color=#ff0000]13:00:00[/color][/b][|][coord]617|485[/coord][|][coord]523|320[/coord][*]44[|][url=https://pl165.plemiona.pl/game.php?village=46320&screen=place&target=28515]Wyślij OFF[/url][|]13757[|]0[|]2021-11-29
[b][color=#0e5e5e]09:04:44[/color][/b]-[b][color=#ff0000]14:04:44[/color][/b][|]2021-12-03
[b][color=#0e5e5e]08:00:00[/color][/b]-[b][color=#ff0000]13:00:00[/color][/b][|][coord]679|399[/coord][|][coord]501|333[/coord][*]45[|][url=https://pl165.plemiona.pl/game.php?village=52617&screen=place&target=25175]Wyślij OFF[/url][|]20513[|]0[|]2021-11-29
[b][color=#0e5e5e]09:04:44[/color][/b]-[b][color=#ff0000]14:04:44[/color][/b][|]2021-12-03
[b][color=#0e5e5e]08:00:00[/color][/b]-[b][color=#ff0000]13:00:00[/color][/b][|][coord]699|399[/coord][|][coord]517|345[/coord][*]46[|][url=https://pl165.plemiona.pl/game.php?village=49570&screen=place&target=13903]Wyślij OFF[/url][|]20513[|]0[|]2021-11-29
[b][color=#0e5e5e]09:06:19[/color][/b]-[b][color=#ff0000]14:06:19[/color][/b][|]2021-12-03
[b][color=#0e5e5e]08:00:00[/color][/b]-[b][color=#ff0000]13:00:00[/color][/b][|][coord]698|409[/coord][|][coord]510|383[/coord][*]47[|][url=https://pl165.plemiona.pl/game.php?village=50199&screen=place&target=34959]Wyślij OFF[/url][|]20513[|]0[|]2021-11-29
[b][color=#0e5e5e]09:06:52[/color][/b]-[b][color=#ff0000]14:06:52[/color][/b][|]2021-12-03
[b][color=#0e5e5e]08:00:00[/color][/b]-[b][color=#ff0000]13:00:00[/color][/b][|][coord]694|400[/coord][|][coord]521|322[/coord][*]48[|][url=https://pl165.plemiona.pl/game.php?village=53009&screen=place&target=26226]Wyślij OFF[/url][|]20513[|]0[|]2021-11-29
[b][color=#0e5e5e]09:16:36[/color][/b]-[b][color=#ff0000]14:16:36[/color][/b][|]2021-12-03
[b][color=#0e5e5e]08:00:00[/color][/b]-[b][color=#ff0000]13:00:00[/color][/b][|][coord]689|393[/coord][|][coord]506|344[/coord][*]49[|][url=https://pl165.plemiona.pl/game.php?village=40947&screen=place&target=35094]Wyślij OFF[/url][|]17269[|]0[|]2021-11-29
[b][color=#0e5e5e]09:23:35[/color][/b]-[b][color=#ff0000]14:23:35[/color][/b][|]2021-12-03
[b][color=#0e5e5e]08:00:00[/color][/b]-[b][color=#ff0000]13:00:00[/color][/b][|][coord]674|404[/coord][|][coord]503|323[/coord][*]50[|][url=https://pl165.plemiona.pl/game.php?village=50133&screen=place&target=27343]Wyślij OFF[/url][|]20513[|]0[|]2021-11-29
[b][color=#0e5e5e]09:34:22[/color][/b]-[b][color=#ff0000]14:34:22[/color][/b][|]2021-12-03
[b][color=#0e5e5e]08:00:00[/color][/b]-[b][color=#ff0000]13:00:00[/color][/b][|][coord]699|412[/coord][|][coord]524|341[/coord][*]51[|][url=https://pl165.plemiona.pl/game.php?village=13285&screen=place&target=32930]Wyślij OFF[/url][|]20238[|]0[|]2021-11-29
[b][color=#0e5e5e]09:38:01[/color][/b]-[b][color=#ff0000]14:38:01[/color][/b][|]2021-12-03
[b][color=#0e5e5e]08:00:00[/color][/b]-[b][color=#ff0000]13:00:00[/color][/b][|][coord]616|491[/coord][|][coord]530|323[/coord][*]52[|][url=https://pl165.plemiona.pl/game.php?village=40152&screen=place&target=31060]Wyślij OFF[/url][|]20513[|]0[|]2021-11-29
[b][color=#0e5e5e]09:38:01[/color][/b]-[b][color=#ff0000]14:38:01[/color][/b][|]2021-12-03
[b][color=#0e5e5e]08:00:00[/color][/b]-[b][color=#ff0000]13:00:00[/color][/b][|][coord]677|412[/coord][|][coord]509|326[/coord][*]53[|][url=https://pl165.plemiona.pl/game.php?village=52718&screen=place&target=29602]Wyślij OFF[/url][|]20513[|]0[|]2021-11-29
[b][color=#0e5e5e]09:43:16[/color][/b]-[b][color=#ff0000]14:43:16[/color][/b][|]2021-12-03
[b][color=#0e5e5e]08:00:00[/color][/b]-[b][color=#ff0000]13:00:00[/color][/b][|][coord]694|407[/coord][|][coord]521|332[/coord][*]54[|][url=https://pl165.plemiona.pl/game.php?village=51787&screen=place&target=23940]Wyślij OFF[/url][|]27295[|]0[|]2021-11-29
[b][color=#0e5e5e]09:44:37[/color][/b]-[b][color=#ff0000]14:44:37[/color][/b][|]2021-12-03
[b][color=#0e5e5e]08:00:00[/color][/b]-[b][color=#ff0000]13:00:00[/color][/b][|][coord]688|392[/coord][|][coord]504|351[/coord][*]55[|][url=https://pl165.plemiona.pl/game.php?village=55653&screen=place&target=28655]Wyślij OFF[/url][|]20013[|]0[|]2021-11-29
[b][color=#0e5e5e]09:46:32[/color][/b]-[b][color=#ff0000]14:46:32[/color][/b][|]2021-12-03
[b][color=#0e5e5e]08:00:00[/color][/b]-[b][color=#ff0000]13:00:00[/color][/b][|][coord]705|418[/coord][|][coord]533|341[/coord][*]56[|][url=https://pl165.plemiona.pl/game.php?village=13664&screen=place&target=33381]Wyślij OFF[/url][|]20513[|]0[|]2021-11-29
[b][color=#0e5e5e]09:51:38[/color][/b]-[b][color=#ff0000]14:51:38[/color][/b][|]2021-12-03
[b][color=#0e5e5e]08:00:00[/color][/b]-[b][color=#ff0000]13:00:00[/color][/b][|][coord]618|492[/coord][|][coord]533|324[/coord][*]57[|][url=https://pl165.plemiona.pl/game.php?village=54851&screen=place&target=24087]Wyślij OFF[/url][|]20513[|]0[|]2021-11-29
[b][color=#0e5e5e]10:02:14[/color][/b]-[b][color=#ff0000]15:02:14[/color][/b][|]2021-12-03
[b][color=#0e5e5e]08:00:00[/color][/b]-[b][color=#ff0000]13:00:00[/color][/b][|][coord]703|403[/coord][|][coord]523|349[/coord][*]58[|][url=https://pl165.plemiona.pl/game.php?village=50153&screen=place&target=34172]Wyślij OFF[/url][|]24487[|]0[|]2021-11-29
[b][color=#0e5e5e]10:16:13[/color][/b]-[b][color=#ff0000]15:16:13[/color][/b][|]2021-12-03
[b][color=#0e5e5e]08:00:00[/color][/b]-[b][color=#ff0000]13:00:00[/color][/b][|][coord]693|404[/coord][|][coord]523|325[/coord][*]59[|][url=https://pl165.plemiona.pl/game.php?village=25469&screen=place&target=35094]Wyślij OFF[/url][|]17028[|]0[|]2021-11-29
[b][color=#0e5e5e]10:20:18[/color][/b]-[b][color=#ff0000]15:20:18[/color][/b][|]2021-12-03
[b][color=#0e5e5e]08:00:00[/color][/b]-[b][color=#ff0000]13:00:00[/color][/b][|][coord]624|466[/coord][|][coord]503|323[/coord][*]60[|][url=https://pl165.plemiona.pl/game.php?village=47971&screen=place&target=34474]Wyślij OFF[/url][|]20497[|]0[|]2021-11-29
[b][color=#0e5e5e]10:27:50[/color][/b]-[b][color=#ff0000]15:27:50[/color][/b][|]2021-12-03
[b][color=#0e5e5e]08:00:00[/color][/b]-[b][color=#ff0000]13:00:00[/color][/b][|][coord]693|410[/coord][|][coord]529|320[/coord][*]61[|][url=https://pl165.plemiona.pl/game.php?village=52201&screen=place&target=30829]Wyślij OFF[/url][|]20513[|]0[|]2021-11-29
[b][color=#0e5e5e]11:12:11[/color][/b]-[b][color=#ff0000]16:12:11[/color][/b][|]2021-12-03
[b][color=#0e5e5e]08:00:00[/color][/b]-[b][color=#ff0000]13:00:00[/color][/b][|][coord]706|417[/coord][|][coord]540|334[/coord][*]62[|][url=https://pl165.plemiona.pl/game.php?village=51473&screen=place&target=33249]Wyślij OFF[/url][|]19861[|]0[|]2021-11-29
[b][color=#0e5e5e]11:13:48[/color][/b]-[b][color=#ff0000]16:13:48[/color][/b][|]2021-12-03
[b][color=#0e5e5e]08:00:00[/color][/b]-[b][color=#ff0000]13:00:00[/color][/b][|][coord]688|401[/coord][|][coord]517|329[/coord][*]63[|][url=https://pl165.plemiona.pl/game.php?village=44027&screen=place&target=28038]Wyślij OFF[/url][|]20513[|]0[|]2021-11-29
[b][color=#0e5e5e]11:20:12[/color][/b]-[b][color=#ff0000]16:20:12[/color][/b][|]2021-12-03
[b][color=#0e5e5e]08:00:00[/color][/b]-[b][color=#ff0000]13:00:00[/color][/b][|][coord]684|408[/coord][|][coord]509|347[/coord][/table]





[table][**][||]WYŚLIJ[||]OFF[||]GRUBE[||]WYSYŁKA[||]WEJŚCIE[||]Z WIOSKI[||]CEL[/**][*]64[|][url=https://pl165.plemiona.pl/game.php?village=42918&screen=place&target=28515]Wyślij OFF[/url][|]23705[|]0[|]2021-11-29
[b][color=#0e5e5e]11:25:08[/color][/b]-[b][color=#ff0000]16:25:08[/color][/b][|]2021-12-03
[b][color=#0e5e5e]08:00:00[/color][/b]-[b][color=#ff0000]13:00:00[/color][/b][|][coord]674|399[/coord][|][coord]501|333[/coord][*]65[|][url=https://pl165.plemiona.pl/game.php?village=41679&screen=place&target=28038]Wyślij OFF[/url][|]12236[|]0[|]2021-11-29
[b][color=#0e5e5e]11:25:08[/color][/b]-[b][color=#ff0000]16:25:08[/color][/b][|]2021-12-03
[b][color=#0e5e5e]08:00:00[/color][/b]-[b][color=#ff0000]13:00:00[/color][/b][|][coord]682|413[/coord][|][coord]509|347[/coord][*]66[|][url=https://pl165.plemiona.pl/game.php?village=50025&screen=place&target=21028]Wyślij OFF[/url][|]20513[|]0[|]2021-11-29
[b][color=#0e5e5e]11:48:16[/color][/b]-[b][color=#ff0000]16:48:16[/color][/b][|]2021-12-03
[b][color=#0e5e5e]08:00:00[/color][/b]-[b][color=#ff0000]13:00:00[/color][/b][|][coord]684|397[/coord][|][coord]504|357[/coord][*]67[|][url=https://pl165.plemiona.pl/game.php?village=5647&screen=place&target=37684]Wyślij OFF[/url][|]23705[|]0[|]2021-11-29
[b][color=#0e5e5e]11:53:04[/color][/b]-[b][color=#ff0000]16:53:04[/color][/b][|]2021-12-03
[b][color=#0e5e5e]08:00:00[/color][/b]-[b][color=#ff0000]13:00:00[/color][/b][|][coord]617|489[/coord][|][coord]546|319[/coord][*]68[|][url=https://pl165.plemiona.pl/game.php?village=54430&screen=place&target=28922]Wyślij OFF[/url][|]20513[|]0[|]2021-11-29
[b][color=#0e5e5e]12:20:45[/color][/b]-[b][color=#ff0000]17:20:45[/color][/b][|]2021-12-03
[b][color=#0e5e5e]08:00:00[/color][/b]-[b][color=#ff0000]13:00:00[/color][/b][|][coord]705|407[/coord][|][coord]536|336[/coord][*]69[|][url=https://pl165.plemiona.pl/game.php?village=48733&screen=place&target=26918]Wyślij OFF[/url][|]27565[|]0[|]2021-11-29
[b][color=#0e5e5e]12:31:53[/color][/b]-[b][color=#ff0000]17:31:53[/color][/b][|]2021-12-03
[b][color=#0e5e5e]08:00:00[/color][/b]-[b][color=#ff0000]13:00:00[/color][/b][|][coord]684|402[/coord][|][coord]513|337[/coord][*]70[|][url=https://pl165.plemiona.pl/game.php?village=45096&screen=place&target=33691]Wyślij OFF[/url][|]20513[|]0[|]2021-11-29
[b][color=#0e5e5e]12:40:10[/color][/b]-[b][color=#ff0000]17:40:10[/color][/b][|]2021-12-03
[b][color=#0e5e5e]08:00:00[/color][/b]-[b][color=#ff0000]13:00:00[/color][/b][|][coord]678|401[/coord][|][coord]511|327[/coord][*]71[|][url=https://pl165.plemiona.pl/game.php?village=44847&screen=place&target=29272]Wyślij OFF[/url][|]20513[|]0[|]2021-11-29
[b][color=#0e5e5e]12:41:54[/color][/b]-[b][color=#ff0000]17:41:54[/color][/b][|]2021-12-03
[b][color=#0e5e5e]08:00:00[/color][/b]-[b][color=#ff0000]13:00:00[/color][/b][|][coord]691|425[/coord][|][coord]531|337[/coord][*]72[|][url=https://pl165.plemiona.pl/game.php?village=49485&screen=place&target=32732]Wyślij OFF[/url][|]20513[|]0[|]2021-11-29
[b][color=#0e5e5e]12:44:07[/color][/b]-[b][color=#ff0000]17:44:07[/color][/b][|]2021-12-03
[b][color=#0e5e5e]08:00:00[/color][/b]-[b][color=#ff0000]13:00:00[/color][/b][|][coord]689|410[/coord][|][coord]528|324[/coord][*]73[|][url=https://pl165.plemiona.pl/game.php?village=44694&screen=place&target=33358]Wyślij OFF[/url][|]19548[|]0[|]2021-11-29
[b][color=#0e5e5e]12:45:31[/color][/b]-[b][color=#ff0000]17:45:31[/color][/b][|]2021-12-03
[b][color=#0e5e5e]08:00:00[/color][/b]-[b][color=#ff0000]13:00:00[/color][/b][|][coord]689|412[/coord][|][coord]527|328[/coord][*]74[|][url=https://pl165.plemiona.pl/game.php?village=14294&screen=place&target=36785]Wyślij OFF[/url][|]24487[|]0[|]2021-11-29
[b][color=#0e5e5e]12:45:51[/color][/b]-[b][color=#ff0000]17:45:51[/color][/b][|]2021-12-03
[b][color=#0e5e5e]08:00:00[/color][/b]-[b][color=#ff0000]13:00:00[/color][/b][|][coord]618|484[/coord][|][coord]538|320[/coord][*]75[|][url=https://pl165.plemiona.pl/game.php?village=15803&screen=place&target=28798]Wyślij OFF[/url][|]20497[|]0[|]2021-11-29
[b][color=#0e5e5e]12:46:25[/color][/b]-[b][color=#ff0000]17:46:25[/color][/b][|]2021-12-03
[b][color=#0e5e5e]08:00:00[/color][/b]-[b][color=#ff0000]13:00:00[/color][/b][|][coord]623|472[/coord][|][coord]506|332[/coord][*]76[|][url=https://pl165.plemiona.pl/game.php?village=39795&screen=place&target=27003]Wyślij OFF[/url][|]23223[|]0[|]2021-11-29
[b][color=#0e5e5e]12:49:08[/color][/b]-[b][color=#ff0000]17:49:08[/color][/b][|]2021-12-03
[b][color=#0e5e5e]08:00:00[/color][/b]-[b][color=#ff0000]13:00:00[/color][/b][|][coord]671|404[/coord][|][coord]501|338[/coord][*]77[|][url=https://pl165.plemiona.pl/game.php?village=51777&screen=place&target=24134]Wyślij OFF[/url][|]20513[|]0[|]2021-11-29
[b][color=#0e5e5e]12:54:58[/color][/b]-[b][color=#ff0000]17:54:58[/color][/b][|]2021-12-03
[b][color=#0e5e5e]08:00:00[/color][/b]-[b][color=#ff0000]13:00:00[/color][/b][|][coord]686|393[/coord][|][coord]510|346[/coord][*]78[|][url=https://pl165.plemiona.pl/game.php?village=51456&screen=place&target=28997]Wyślij OFF[/url][|]20513[|]0[|]2021-11-29
[b][color=#0e5e5e]13:04:12[/color][/b]-[b][color=#ff0000]18:04:12[/color][/b][|]2021-12-03
[b][color=#0e5e5e]08:00:00[/color][/b]-[b][color=#ff0000]13:00:00[/color][/b][|][coord]698|411[/coord][|][coord]531|339[/coord][*]79[|][url=https://pl165.plemiona.pl/game.php?village=55319&screen=place&target=10646]Wyślij OFF[/url][|]12193[|]0[|]2021-11-29
[b][color=#0e5e5e]13:28:40[/color][/b]-[b][color=#ff0000]18:28:40[/color][/b][|]2021-12-03
[b][color=#0e5e5e]08:00:00[/color][/b]-[b][color=#ff0000]13:00:00[/color][/b][|][coord]696|394[/coord][|][coord]515|398[/coord][*]80[|][url=https://pl165.plemiona.pl/game.php?village=43568&screen=place&target=26918]Wyślij OFF[/url][|]20513[|]0[|]2021-11-29
[b][color=#0e5e5e]13:31:44[/color][/b]-[b][color=#ff0000]18:31:44[/color][/b][|]2021-12-03
[b][color=#0e5e5e]08:00:00[/color][/b]-[b][color=#ff0000]13:00:00[/color][/b][|][coord]679|409[/coord][|][coord]513|337[/coord][*]81[|][url=https://pl165.plemiona.pl/game.php?village=17266&screen=place&target=32576]Wyślij OFF[/url][|]20513[|]0[|]2021-11-29
[b][color=#0e5e5e]13:38:38[/color][/b]-[b][color=#ff0000]18:38:38[/color][/b][|]2021-12-03
[b][color=#0e5e5e]08:00:00[/color][/b]-[b][color=#ff0000]13:00:00[/color][/b][|][coord]625|463[/coord][|][coord]506|327[/coord][*]82[|][url=https://pl165.plemiona.pl/game.php?village=52081&screen=place&target=33381]Wyślij OFF[/url][|]20511[|]0[|]2021-11-29
[b][color=#0e5e5e]13:38:57[/color][/b]-[b][color=#ff0000]18:38:57[/color][/b][|]2021-12-03
[b][color=#0e5e5e]08:00:00[/color][/b]-[b][color=#ff0000]13:00:00[/color][/b][|][coord]696|402[/coord][|][coord]533|324[/coord][*]83[|][url=https://pl165.plemiona.pl/game.php?village=39322&screen=place&target=29033]Wyślij OFF[/url][|]20513[|]0[|]2021-11-29
[b][color=#0e5e5e]13:39:12[/color][/b]-[b][color=#ff0000]18:39:12[/color][/b][|]2021-12-03
[b][color=#0e5e5e]08:00:00[/color][/b]-[b][color=#ff0000]13:00:00[/color][/b][|][coord]671|401[/coord][|][coord]504|332[/coord][*]84[|][url=https://pl165.plemiona.pl/game.php?village=46975&screen=place&target=32756]Wyślij OFF[/url][|]20513[|]0[|]2021-11-29
[b][color=#0e5e5e]13:39:37[/color][/b]-[b][color=#ff0000]18:39:37[/color][/b][|]2021-12-03
[b][color=#0e5e5e]08:00:00[/color][/b]-[b][color=#ff0000]13:00:00[/color][/b][|][coord]685|405[/coord][|][coord]524|323[/coord][*]85[|][url=https://pl165.plemiona.pl/game.php?village=47520&screen=place&target=29065]Wyślij OFF[/url][|]20513[|]0[|]2021-11-29
[b][color=#0e5e5e]13:41:57[/color][/b]-[b][color=#ff0000]18:41:57[/color][/b][|]2021-12-03
[b][color=#0e5e5e]08:00:00[/color][/b]-[b][color=#ff0000]13:00:00[/color][/b][|][coord]694|431[/coord][|][coord]538|340[/coord][*]86[|][url=https://pl165.plemiona.pl/game.php?village=48480&screen=place&target=31565]Wyślij OFF[/url][|]20513[|]0[|]2021-11-29
[b][color=#0e5e5e]13:50:35[/color][/b]-[b][color=#ff0000]18:50:35[/color][/b][|]2021-12-03
[b][color=#0e5e5e]08:00:00[/color][/b]-[b][color=#ff0000]13:00:00[/color][/b][|][coord]688|399[/coord][|][coord]521|331[/coord][*]87[|][url=https://pl165.plemiona.pl/game.php?village=56406&screen=place&target=30816]Wyślij OFF[/url][|]20513[|]0[|]2021-11-29
[b][color=#0e5e5e]13:52:35[/color][/b]-[b][color=#ff0000]18:52:35[/color][/b][|]2021-12-03
[b][color=#0e5e5e]08:00:00[/color][/b]-[b][color=#ff0000]13:00:00[/color][/b][|][coord]705|416[/coord][|][coord]545|333[/coord][*]88[|][url=https://pl165.plemiona.pl/game.php?village=48870&screen=place&target=33254]Wyślij OFF[/url][|]20513[|]0[|]2021-11-29
[b][color=#0e5e5e]13:55:55[/color][/b]-[b][color=#ff0000]18:55:55[/color][/b][|]2021-12-03
[b][color=#0e5e5e]08:00:00[/color][/b]-[b][color=#ff0000]13:00:00[/color][/b][|][coord]684|394[/coord][|][coord]516|329[/coord][*]89[|][url=https://pl165.plemiona.pl/game.php?village=51165&screen=place&target=32386]Wyślij OFF[/url][|]27585[|]0[|]2021-11-29
[b][color=#0e5e5e]14:02:20[/color][/b]-[b][color=#ff0000]19:02:20[/color][/b][|]2021-12-03
[b][color=#0e5e5e]08:00:00[/color][/b]-[b][color=#ff0000]13:00:00[/color][/b][|][coord]687|400[/coord][|][coord]523|326[/coord][*]90[|][url=https://pl165.plemiona.pl/game.php?village=48817&screen=place&target=32732]Wyślij OFF[/url][|]22741[|]0[|]2021-11-29
[b][color=#0e5e5e]14:06:00[/color][/b]-[b][color=#ff0000]19:06:00[/color][/b][|]2021-12-03
[b][color=#0e5e5e]08:00:00[/color][/b]-[b][color=#ff0000]13:00:00[/color][/b][|][coord]690|402[/coord][|][coord]528|324[/coord][*]91[|][url=https://pl165.plemiona.pl/game.php?village=9264&screen=place&target=32315]Wyślij OFF[/url][|]19323[|]0[|]2021-11-29
[b][color=#0e5e5e]14:11:56[/color][/b]-[b][color=#ff0000]19:11:56[/color][/b][|]2021-12-03
[b][color=#0e5e5e]08:00:00[/color][/b]-[b][color=#ff0000]13:00:00[/color][/b][|][coord]620|484[/coord][|][coord]531|328[/coord][*]92[|][url=https://pl165.plemiona.pl/game.php?village=41979&screen=place&target=34979]Wyślij OFF[/url][|]20513[|]0[|]2021-11-29
[b][color=#0e5e5e]14:17:57[/color][/b]-[b][color=#ff0000]19:17:57[/color][/b][|]2021-12-03
[b][color=#0e5e5e]08:00:00[/color][/b]-[b][color=#ff0000]13:00:00[/color][/b][|][coord]688|433[/coord][|][coord]544|326[/coord][*]93[|][url=https://pl165.plemiona.pl/game.php?village=44814&screen=place&target=18096]Wyślij OFF[/url][|]20513[|]0[|]2021-11-29
[b][color=#0e5e5e]14:19:52[/color][/b]-[b][color=#ff0000]19:19:52[/color][/b][|]2021-12-03
[b][color=#0e5e5e]08:00:00[/color][/b]-[b][color=#ff0000]13:00:00[/color][/b][|][coord]682|402[/coord][|][coord]503|391[/coord][*]94[|][url=https://pl165.plemiona.pl/game.php?village=17334&screen=place&target=30711]Wyślij OFF[/url][|]20513[|]0[|]2021-11-29
[b][color=#0e5e5e]14:20:57[/color][/b]-[b][color=#ff0000]19:20:57[/color][/b][|]2021-12-03
[b][color=#0e5e5e]08:00:00[/color][/b]-[b][color=#ff0000]13:00:00[/color][/b][|][coord]625|462[/coord][|][coord]507|327[/coord][/table]





[table][**][||]WYŚLIJ[||]OFF[||]GRUBE[||]WYSYŁKA[||]WEJŚCIE[||]Z WIOSKI[||]CEL[/**][*]95[|][url=https://pl165.plemiona.pl/game.php?village=49955&screen=place&target=26717]Wyślij OFF[/url][|]20513[|]0[|]2021-11-29
[b][color=#0e5e5e]14:29:55[/color][/b]-[b][color=#ff0000]19:29:55[/color][/b][|]2021-12-03
[b][color=#0e5e5e]08:00:00[/color][/b]-[b][color=#ff0000]13:00:00[/color][/b][|][coord]696|401[/coord][|][coord]527|342[/coord][*]96[|][url=https://pl165.plemiona.pl/game.php?village=56465&screen=place&target=29967]Wyślij OFF[/url][|]20513[|]0[|]2021-11-29
[b][color=#0e5e5e]14:31:46[/color][/b]-[b][color=#ff0000]19:31:46[/color][/b][|]2021-12-03
[b][color=#0e5e5e]08:00:00[/color][/b]-[b][color=#ff0000]13:00:00[/color][/b][|][coord]706|413[/coord][|][coord]544|337[/coord][*]97[|][url=https://pl165.plemiona.pl/game.php?village=56282&screen=place&target=35544]Wyślij OFF[/url][|]20513[|]0[|]2021-11-29
[b][color=#0e5e5e]14:33:01[/color][/b]-[b][color=#ff0000]19:33:01[/color][/b][|]2021-12-03
[b][color=#0e5e5e]08:00:00[/color][/b]-[b][color=#ff0000]13:00:00[/color][/b][|][coord]705|403[/coord][|][coord]544|325[/coord][*]98[|][url=https://pl165.plemiona.pl/game.php?village=48704&screen=place&target=23811]Wyślij OFF[/url][|]20513[|]0[|]2021-11-29
[b][color=#0e5e5e]14:38:03[/color][/b]-[b][color=#ff0000]19:38:03[/color][/b][|]2021-12-03
[b][color=#0e5e5e]08:00:00[/color][/b]-[b][color=#ff0000]13:00:00[/color][/b][|][coord]692|402[/coord][|][coord]521|350[/coord][*]99[|][url=https://pl165.plemiona.pl/game.php?village=49847&screen=place&target=29864]Wyślij OFF[/url][|]24487[|]0[|]2021-11-29
[b][color=#0e5e5e]14:38:43[/color][/b]-[b][color=#ff0000]19:38:43[/color][/b][|]2021-12-03
[b][color=#0e5e5e]08:00:00[/color][/b]-[b][color=#ff0000]13:00:00[/color][/b][|][coord]692|405[/coord][|][coord]528|334[/coord][*]100[|][url=https://pl165.plemiona.pl/game.php?village=48891&screen=place&target=27653]Wyślij OFF[/url][|]22913[|]0[|]2021-11-29
[b][color=#0e5e5e]14:45:21[/color][/b]-[b][color=#ff0000]19:45:21[/color][/b][|]2021-12-03
[b][color=#0e5e5e]08:00:00[/color][/b]-[b][color=#ff0000]13:00:00[/color][/b][|][coord]691|401[/coord][|][coord]524|338[/coord][*]101[|][url=https://pl165.plemiona.pl/game.php?village=53980&screen=place&target=25074]Wyślij OFF[/url][|]20513[|]0[|]2021-11-29
[b][color=#0e5e5e]14:57:54[/color][/b]-[b][color=#ff0000]19:57:54[/color][/b][|]2021-12-03
[b][color=#0e5e5e]08:00:00[/color][/b]-[b][color=#ff0000]13:00:00[/color][/b][|][coord]703|402[/coord][|][coord]533|349[/coord][*]102[|][url=https://pl165.plemiona.pl/game.php?village=15884&screen=place&target=30777]Wyślij OFF[/url][|]20513[|]0[|]2021-11-29
[b][color=#0e5e5e]15:03:32[/color][/b]-[b][color=#ff0000]20:03:32[/color][/b][|]2021-12-03
[b][color=#0e5e5e]08:00:00[/color][/b]-[b][color=#ff0000]13:00:00[/color][/b][|][coord]622|467[/coord][|][coord]511|328[/coord][*]103[|][url=https://pl165.plemiona.pl/game.php?village=12793&screen=place&target=31353]Wyślij OFF[/url][|]27585[|]0[|]2021-11-29
[b][color=#0e5e5e]15:13:40[/color][/b]-[b][color=#ff0000]20:13:40[/color][/b][|]2021-12-03
[b][color=#0e5e5e]08:00:00[/color][/b]-[b][color=#ff0000]13:00:00[/color][/b][|][coord]614|494[/coord][|][coord]535|335[/coord][*]104[|][url=https://pl165.plemiona.pl/game.php?village=44362&screen=place&target=32377]Wyślij OFF[/url][|]20513[|]0[|]2021-11-29
[b][color=#0e5e5e]15:13:40[/color][/b]-[b][color=#ff0000]20:13:40[/color][/b][|]2021-12-03
[b][color=#0e5e5e]08:00:00[/color][/b]-[b][color=#ff0000]13:00:00[/color][/b][|][coord]680|407[/coord][|][coord]521|328[/coord][*]105[|][url=https://pl165.plemiona.pl/game.php?village=15571&screen=place&target=28957]Wyślij OFF[/url][|]19302[|]0[|]2021-11-29
[b][color=#0e5e5e]15:19:45[/color][/b]-[b][color=#ff0000]20:19:45[/color][/b][|]2021-12-03
[b][color=#0e5e5e]08:00:00[/color][/b]-[b][color=#ff0000]13:00:00[/color][/b][|][coord]618|472[/coord][|][coord]503|337[/coord][*]106[|][url=https://pl165.plemiona.pl/game.php?village=52092&screen=place&target=28655]Wyślij OFF[/url][|]20513[|]0[|]2021-11-29
[b][color=#0e5e5e]15:23:59[/color][/b]-[b][color=#ff0000]20:23:59[/color][/b][|]2021-12-03
[b][color=#0e5e5e]08:00:00[/color][/b]-[b][color=#ff0000]13:00:00[/color][/b][|][coord]699|403[/coord][|][coord]533|341[/coord][*]107[|][url=https://pl165.plemiona.pl/game.php?village=49358&screen=place&target=28738]Wyślij OFF[/url][|]19465[|]0[|]2021-11-29
[b][color=#0e5e5e]15:26:32[/color][/b]-[b][color=#ff0000]20:26:32[/color][/b][|]2021-12-03
[b][color=#0e5e5e]08:00:00[/color][/b]-[b][color=#ff0000]13:00:00[/color][/b][|][coord]690|396[/coord][|][coord]523|337[/coord][*]108[|][url=https://pl165.plemiona.pl/game.php?village=53477&screen=place&target=32930]Wyślij OFF[/url][|]22047[|]0[|]2021-11-29
[b][color=#0e5e5e]15:26:57[/color][/b]-[b][color=#ff0000]20:26:57[/color][/b][|]2021-12-03
[b][color=#0e5e5e]08:00:00[/color][/b]-[b][color=#ff0000]13:00:00[/color][/b][|][coord]689|401[/coord][|][coord]530|323[/coord][*]109[|][url=https://pl165.plemiona.pl/game.php?village=45087&screen=place&target=20634]Wyślij OFF[/url][|]20513[|]0[|]2021-11-29
[b][color=#0e5e5e]15:30:41[/color][/b]-[b][color=#ff0000]20:30:41[/color][/b][|]2021-12-03
[b][color=#0e5e5e]08:00:00[/color][/b]-[b][color=#ff0000]13:00:00[/color][/b][|][coord]694|425[/coord][|][coord]529|361[/coord][*]110[|][url=https://pl165.plemiona.pl/game.php?village=13311&screen=place&target=24941]Wyślij OFF[/url][|]22913[|]0[|]2021-11-29
[b][color=#0e5e5e]15:45:42[/color][/b]-[b][color=#ff0000]20:45:42[/color][/b][|]2021-12-03
[b][color=#0e5e5e]08:00:00[/color][/b]-[b][color=#ff0000]13:00:00[/color][/b][|][coord]615|483[/coord][|][coord]505|345[/coord][*]111[|][url=https://pl165.plemiona.pl/game.php?village=16328&screen=place&target=30357]Wyślij OFF[/url][|]20253[|]0[|]2021-11-29
[b][color=#0e5e5e]15:52:46[/color][/b]-[b][color=#ff0000]20:52:46[/color][/b][|]2021-12-03
[b][color=#0e5e5e]08:00:00[/color][/b]-[b][color=#ff0000]13:00:00[/color][/b][|][coord]620|459[/coord][|][coord]501|329[/coord][*]112[|][url=https://pl165.plemiona.pl/game.php?village=56859&screen=place&target=27578]Wyślij OFF[/url][|]20513[|]0[|]2021-11-29
[b][color=#0e5e5e]15:53:01[/color][/b]-[b][color=#ff0000]20:53:01[/color][/b][|]2021-12-03
[b][color=#0e5e5e]08:00:00[/color][/b]-[b][color=#ff0000]13:00:00[/color][/b][|][coord]704|411[/coord][|][coord]541|344[/coord][*]113[|][url=https://pl165.plemiona.pl/game.php?village=50071&screen=place&target=25512]Wyślij OFF[/url][|]17298[|]0[|]2021-11-29
[b][color=#0e5e5e]16:05:17[/color][/b]-[b][color=#ff0000]21:05:17[/color][/b][|]2021-12-03
[b][color=#0e5e5e]08:00:00[/color][/b]-[b][color=#ff0000]13:00:00[/color][/b][|][coord]695|399[/coord][|][coord]528|344[/coord][*]114[|][url=https://pl165.plemiona.pl/game.php?village=14711&screen=place&target=30357]Wyślij OFF[/url][|]15897[|]0[|]2021-11-29
[b][color=#0e5e5e]16:08:11[/color][/b]-[b][color=#ff0000]21:08:11[/color][/b][|]2021-12-03
[b][color=#0e5e5e]08:00:00[/color][/b]-[b][color=#ff0000]13:00:00[/color][/b][|][coord]617|461[/coord][|][coord]501|329[/coord][*]115[|][url=https://pl165.plemiona.pl/game.php?village=50031&screen=place&target=29258]Wyślij OFF[/url][|]20513[|]0[|]2021-11-29
[b][color=#0e5e5e]16:16:23[/color][/b]-[b][color=#ff0000]21:16:23[/color][/b][|]2021-12-03
[b][color=#0e5e5e]08:00:00[/color][/b]-[b][color=#ff0000]13:00:00[/color][/b][|][coord]698|413[/coord][|][coord]538|341[/coord][*]116[|][url=https://pl165.plemiona.pl/game.php?village=49785&screen=place&target=28841]Wyślij OFF[/url][|]20513[|]0[|]2021-11-29
[b][color=#0e5e5e]16:20:09[/color][/b]-[b][color=#ff0000]21:20:09[/color][/b][|]2021-12-03
[b][color=#0e5e5e]08:00:00[/color][/b]-[b][color=#ff0000]13:00:00[/color][/b][|][coord]691|402[/coord][|][coord]527|340[/coord][*]117[|][url=https://pl165.plemiona.pl/game.php?village=12482&screen=place&target=18669]Wyślij OFF[/url][|]16380[|]0[|]2021-11-29
[b][color=#0e5e5e]16:20:45[/color][/b]-[b][color=#ff0000]21:20:45[/color][/b][|]2021-12-03
[b][color=#0e5e5e]08:00:00[/color][/b]-[b][color=#ff0000]13:00:00[/color][/b][|][coord]608|527[/coord][|][coord]530|370[/coord][*]118[|][url=https://pl165.plemiona.pl/game.php?village=55594&screen=place&target=17189]Wyślij OFF[/url][|]20513[|]0[|]2021-11-29
[b][color=#0e5e5e]16:22:28[/color][/b]-[b][color=#ff0000]21:22:28[/color][/b][|]2021-12-03
[b][color=#0e5e5e]08:00:00[/color][/b]-[b][color=#ff0000]13:00:00[/color][/b][|][coord]702|404[/coord][|][coord]529|376[/coord][*]119[|][url=https://pl165.plemiona.pl/game.php?village=55674&screen=place&target=29729]Wyślij OFF[/url][|]20513[|]0[|]2021-11-29
[b][color=#0e5e5e]16:25:07[/color][/b]-[b][color=#ff0000]21:25:07[/color][/b][|]2021-12-03
[b][color=#0e5e5e]08:00:00[/color][/b]-[b][color=#ff0000]13:00:00[/color][/b][|][coord]706|411[/coord][|][coord]545|342[/coord][*]120[|][url=https://pl165.plemiona.pl/game.php?village=48058&screen=place&target=29987]Wyślij OFF[/url][|]20513[|]0[|]2021-11-29
[b][color=#0e5e5e]16:30:41[/color][/b]-[b][color=#ff0000]21:30:41[/color][/b][|]2021-12-03
[b][color=#0e5e5e]08:00:00[/color][/b]-[b][color=#ff0000]13:00:00[/color][/b][|][coord]676|393[/coord][|][coord]512|332[/coord][*]121[|][url=https://pl165.plemiona.pl/game.php?village=44237&screen=place&target=15518]Wyślij OFF[/url][|]23705[|]0[|]2021-11-29
[b][color=#0e5e5e]16:36:05[/color][/b]-[b][color=#ff0000]21:36:05[/color][/b][|]2021-12-03
[b][color=#0e5e5e]08:00:00[/color][/b]-[b][color=#ff0000]13:00:00[/color][/b][|][coord]676|399[/coord][|][coord]503|374[/coord][*]122[|][url=https://pl165.plemiona.pl/game.php?village=46882&screen=place&target=27269]Wyślij OFF[/url][|]20513[|]0[|]2021-11-29
[b][color=#0e5e5e]16:43:44[/color][/b]-[b][color=#ff0000]21:43:44[/color][/b][|]2021-12-03
[b][color=#0e5e5e]08:00:00[/color][/b]-[b][color=#ff0000]13:00:00[/color][/b][|][coord]684|411[/coord][|][coord]525|339[/coord][*]123[|][url=https://pl165.plemiona.pl/game.php?village=53039&screen=place&target=27991]Wyślij OFF[/url][|]22913[|]0[|]2021-11-29
[b][color=#0e5e5e]16:48:28[/color][/b]-[b][color=#ff0000]21:48:28[/color][/b][|]2021-12-03
[b][color=#0e5e5e]08:00:00[/color][/b]-[b][color=#ff0000]13:00:00[/color][/b][|][coord]704|407[/coord][|][coord]543|340[/coord][*]124[|][url=https://pl165.plemiona.pl/game.php?village=42583&screen=place&target=35817]Wyślij OFF[/url][|]20513[|]0[|]2021-11-29
[b][color=#0e5e5e]16:55:26[/color][/b]-[b][color=#ff0000]21:55:26[/color][/b][|]2021-12-03
[b][color=#0e5e5e]08:00:00[/color][/b]-[b][color=#ff0000]13:00:00[/color][/b][|][coord]678|412[/coord][|][coord]526|327[/coord][*]125[|][url=https://pl165.plemiona.pl/game.php?village=50406&screen=place&target=30879]Wyślij OFF[/url][|]20513[|]0[|]2021-11-29
[b][color=#0e5e5e]16:59:55[/color][/b]-[b][color=#ff0000]21:59:55[/color][/b][|]2021-12-03
[b][color=#0e5e5e]08:00:00[/color][/b]-[b][color=#ff0000]13:00:00[/color][/b][|][coord]687|399[/coord][|][coord]526|333[/coord][/table]





[table][**][||]WYŚLIJ[||]OFF[||]GRUBE[||]WYSYŁKA[||]WEJŚCIE[||]Z WIOSKI[||]CEL[/**][*]126[|][url=https://pl165.plemiona.pl/game.php?village=2290&screen=place&target=31353]Wyślij OFF[/url][|]24233[|]0[|]2021-11-29
[b][color=#0e5e5e]17:00:52[/color][/b]-[b][color=#ff0000]22:00:52[/color][/b][|]2021-12-03
[b][color=#0e5e5e]08:00:00[/color][/b]-[b][color=#ff0000]13:00:00[/color][/b][|][coord]614|490[/coord][|][coord]535|335[/coord][*]127[|][url=https://pl165.plemiona.pl/game.php?village=1993&screen=place&target=26997]Wyślij OFF[/url][|]22913[|]0[|]2021-11-29
[b][color=#0e5e5e]17:02:15[/color][/b]-[b][color=#ff0000]22:02:15[/color][/b][|]2021-12-03
[b][color=#0e5e5e]08:00:00[/color][/b]-[b][color=#ff0000]13:00:00[/color][/b][|][coord]616|484[/coord][|][coord]517|341[/coord][*]128[|][url=https://pl165.plemiona.pl/game.php?village=15225&screen=place&target=26992]Wyślij OFF[/url][|]20238[|]0[|]2021-11-29
[b][color=#0e5e5e]17:03:01[/color][/b]-[b][color=#ff0000]22:03:01[/color][/b][|]2021-12-03
[b][color=#0e5e5e]08:00:00[/color][/b]-[b][color=#ff0000]13:00:00[/color][/b][|][coord]616|485[/coord][|][coord]520|340[/coord][*]129[|][url=https://pl165.plemiona.pl/game.php?village=1137&screen=place&target=31621]Wyślij OFF[/url][|]19302[|]0[|]2021-11-29
[b][color=#0e5e5e]17:13:18[/color][/b]-[b][color=#ff0000]22:13:18[/color][/b][|]2021-12-03
[b][color=#0e5e5e]08:00:00[/color][/b]-[b][color=#ff0000]13:00:00[/color][/b][|][coord]618|475[/coord][|][coord]529|326[/coord][*]130[|][url=https://pl165.plemiona.pl/game.php?village=32193&screen=place&target=14321]Wyślij OFF[/url][|]14837[|]0[|]2021-11-29
[b][color=#0e5e5e]17:24:27[/color][/b]-[b][color=#ff0000]22:24:27[/color][/b][|]2021-12-03
[b][color=#0e5e5e]08:00:00[/color][/b]-[b][color=#ff0000]13:00:00[/color][/b][|][coord]616|535[/coord][|][coord]533|383[/coord][*]131[|][url=https://pl165.plemiona.pl/game.php?village=45872&screen=place&target=32476]Wyślij OFF[/url][|]20513[|]0[|]2021-11-29
[b][color=#0e5e5e]17:24:27[/color][/b]-[b][color=#ff0000]22:24:27[/color][/b][|]2021-12-03
[b][color=#0e5e5e]08:00:00[/color][/b]-[b][color=#ff0000]13:00:00[/color][/b][|][coord]687|408[/coord][|][coord]535|325[/coord][*]132[|][url=https://pl165.plemiona.pl/game.php?village=48230&screen=place&target=28892]Wyślij OFF[/url][|]18926[|]0[|]2021-11-29
[b][color=#0e5e5e]17:39:02[/color][/b]-[b][color=#ff0000]22:39:02[/color][/b][|]2021-12-03
[b][color=#0e5e5e]08:00:00[/color][/b]-[b][color=#ff0000]13:00:00[/color][/b][|][coord]695|406[/coord][|][coord]535|341[/coord][*]133[|][url=https://pl165.plemiona.pl/game.php?village=16040&screen=place&target=29272]Wyślij OFF[/url][|]20513[|]0[|]2021-11-29
[b][color=#0e5e5e]17:43:48[/color][/b]-[b][color=#ff0000]22:43:48[/color][/b][|]2021-12-03
[b][color=#0e5e5e]08:00:00[/color][/b]-[b][color=#ff0000]13:00:00[/color][/b][|][coord]618|486[/coord][|][coord]531|337[/coord][*]134[|][url=https://pl165.plemiona.pl/game.php?village=50808&screen=place&target=19485]Wyślij OFF[/url][|]20513[|]0[|]2021-11-29
[b][color=#0e5e5e]17:44:14[/color][/b]-[b][color=#ff0000]22:44:14[/color][/b][|]2021-12-03
[b][color=#0e5e5e]08:00:00[/color][/b]-[b][color=#ff0000]13:00:00[/color][/b][|][coord]702|412[/coord][|][coord]536|365[/coord][*]135[|][url=https://pl165.plemiona.pl/game.php?village=11300&screen=place&target=33986]Wyślij OFF[/url][|]15677[|]0[|]2021-11-29
[b][color=#0e5e5e]17:49:07[/color][/b]-[b][color=#ff0000]22:49:07[/color][/b][|]2021-12-03
[b][color=#0e5e5e]08:00:00[/color][/b]-[b][color=#ff0000]13:00:00[/color][/b][|][coord]600|467[/coord][|][coord]510|320[/coord][*]136[|][url=https://pl165.plemiona.pl/game.php?village=11685&screen=place&target=28444]Wyślij OFF[/url][|]19985[|]0[|]2021-11-29
[b][color=#0e5e5e]17:53:59[/color][/b]-[b][color=#ff0000]22:53:59[/color][/b][|]2021-12-03
[b][color=#0e5e5e]08:00:00[/color][/b]-[b][color=#ff0000]13:00:00[/color][/b][|][coord]605|473[/coord][|][coord]502|335[/coord][*]137[|][url=https://pl165.plemiona.pl/game.php?village=10799&screen=place&target=32756]Wyślij OFF[/url][|]20513[|]0[|]2021-11-29
[b][color=#0e5e5e]17:54:15[/color][/b]-[b][color=#ff0000]22:54:15[/color][/b][|]2021-12-03
[b][color=#0e5e5e]08:00:00[/color][/b]-[b][color=#ff0000]13:00:00[/color][/b][|][coord]603|476[/coord][|][coord]524|323[/coord][*]138[|][url=https://pl165.plemiona.pl/game.php?village=47469&screen=place&target=28488]Wyślij OFF[/url][|]20513[|]0[|]2021-11-29
[b][color=#0e5e5e]17:54:15[/color][/b]-[b][color=#ff0000]22:54:15[/color][/b][|]2021-12-03
[b][color=#0e5e5e]08:00:00[/color][/b]-[b][color=#ff0000]13:00:00[/color][/b][|][coord]695|418[/coord][|][coord]542|339[/coord][*]139[|][url=https://pl165.plemiona.pl/game.php?village=43001&screen=place&target=47281]Wyślij OFF[/url][|]20513[|]0[|]2021-11-29
[b][color=#0e5e5e]17:58:26[/color][/b]-[b][color=#ff0000]22:58:26[/color][/b][|]2021-12-03
[b][color=#0e5e5e]08:00:00[/color][/b]-[b][color=#ff0000]13:00:00[/color][/b][|][coord]676|398[/coord][|][coord]505|379[/coord][*]140[|][url=https://pl165.plemiona.pl/game.php?village=50716&screen=place&target=22432]Wyślij OFF[/url][|]20513[|]0[|]2021-11-29
[b][color=#0e5e5e]18:06:48[/color][/b]-[b][color=#ff0000]23:06:48[/color][/b][|]2021-12-03
[b][color=#0e5e5e]08:00:00[/color][/b]-[b][color=#ff0000]13:00:00[/color][/b][|][coord]699|420[/coord][|][coord]540|355[/coord][*]141[|][url=https://pl165.plemiona.pl/game.php?village=52418&screen=place&target=22467]Wyślij OFF[/url][|]20513[|]0[|]2021-11-29
[b][color=#0e5e5e]18:07:36[/color][/b]-[b][color=#ff0000]23:07:36[/color][/b][|]2021-12-03
[b][color=#0e5e5e]08:00:00[/color][/b]-[b][color=#ff0000]13:00:00[/color][/b][|][coord]699|407[/coord][|][coord]535|356[/coord][*]142[|][url=https://pl165.plemiona.pl/game.php?village=50104&screen=place&target=31047]Wyślij OFF[/url][|]20492[|]0[|]2021-11-29
[b][color=#0e5e5e]18:11:26[/color][/b]-[b][color=#ff0000]23:11:26[/color][/b][|]2021-12-03
[b][color=#0e5e5e]08:00:00[/color][/b]-[b][color=#ff0000]13:00:00[/color][/b][|][coord]684|396[/coord][|][coord]526|329[/coord][*]143[|][url=https://pl165.plemiona.pl/game.php?village=15878&screen=place&target=35146]Wyślij OFF[/url][|]20513[|]0[|]2021-11-29
[b][color=#0e5e5e]18:17:02[/color][/b]-[b][color=#ff0000]23:17:02[/color][/b][|]2021-12-03
[b][color=#0e5e5e]08:00:00[/color][/b]-[b][color=#ff0000]13:00:00[/color][/b][|][coord]623|469[/coord][|][coord]540|319[/coord][*]144[|][url=https://pl165.plemiona.pl/game.php?village=51649&screen=place&target=14097]Wyślij OFF[/url][|]20497[|]0[|]2021-11-29
[b][color=#0e5e5e]18:24:50[/color][/b]-[b][color=#ff0000]23:24:50[/color][/b][|]2021-12-03
[b][color=#0e5e5e]08:00:00[/color][/b]-[b][color=#ff0000]13:00:00[/color][/b][|][coord]691|403[/coord][|][coord]521|383[/coord][*]145[|][url=https://pl165.plemiona.pl/game.php?village=47794&screen=place&target=25790]Wyślij OFF[/url][|]20513[|]0[|]2021-11-29
[b][color=#0e5e5e]18:27:33[/color][/b]-[b][color=#ff0000]23:27:33[/color][/b][|]2021-12-03
[b][color=#0e5e5e]08:00:00[/color][/b]-[b][color=#ff0000]13:00:00[/color][/b][|][coord]689|398[/coord][|][coord]527|343[/coord][*]146[|][url=https://pl165.plemiona.pl/game.php?village=48571&screen=place&target=25074]Wyślij OFF[/url][|]20497[|]0[|]2021-11-29
[b][color=#0e5e5e]18:29:13[/color][/b]-[b][color=#ff0000]23:29:13[/color][/b][|]2021-12-03
[b][color=#0e5e5e]08:00:00[/color][/b]-[b][color=#ff0000]13:00:00[/color][/b][|][coord]692|412[/coord][|][coord]533|349[/coord][*]147[|][url=https://pl165.plemiona.pl/game.php?village=44271&screen=place&target=27974]Wyślij OFF[/url][|]20513[|]0[|]2021-11-29
[b][color=#0e5e5e]18:40:11[/color][/b]-[b][color=#ff0000]23:40:11[/color][/b][|]2021-12-03
[b][color=#0e5e5e]08:00:00[/color][/b]-[b][color=#ff0000]13:00:00[/color][/b][|][coord]680|397[/coord][|][coord]521|335[/coord][*]148[|][url=https://pl165.plemiona.pl/game.php?village=50612&screen=place&target=28436]Wyślij OFF[/url][|]20513[|]0[|]2021-11-29
[b][color=#0e5e5e]18:54:21[/color][/b]-[b][color=#ff0000]23:54:21[/color][/b][|]2021-12-03
[b][color=#0e5e5e]08:00:00[/color][/b]-[b][color=#ff0000]13:00:00[/color][/b][|][coord]693|394[/coord][|][coord]533|336[/coord][*]149[|][url=https://pl165.plemiona.pl/game.php?village=48116&screen=place&target=22467]Wyślij OFF[/url][|]20513[|]0[|]2021-11-29
[b][color=#0e5e5e]19:06:37[/color][/b]-[b][color=#ff0000]00:06:37[/color][/b][|]2021-12-03
[b][color=#0e5e5e]08:00:00[/color][/b]-[b][color=#ff0000]13:00:00[/color][/b][|][coord]691|423[/coord][|][coord]535|356[/coord][*]150[|][url=https://pl165.plemiona.pl/game.php?village=51637&screen=place&target=33722]Wyślij OFF[/url][|]20513[|]0[|]2021-11-29
[b][color=#0e5e5e]19:18:23[/color][/b]-[b][color=#ff0000]00:18:23[/color][/b][|]2021-12-03
[b][color=#0e5e5e]08:00:00[/color][/b]-[b][color=#ff0000]13:00:00[/color][/b][|][coord]697|400[/coord][|][coord]541|334[/coord][*]151[|][url=https://pl165.plemiona.pl/game.php?village=15793&screen=place&target=32386]Wyślij OFF[/url][|]20513[|]0[|]2021-11-29
[b][color=#0e5e5e]19:22:17[/color][/b]-[b][color=#ff0000]00:22:17[/color][/b][|]2021-12-03
[b][color=#0e5e5e]08:00:00[/color][/b]-[b][color=#ff0000]13:00:00[/color][/b][|][coord]621|464[/coord][|][coord]523|326[/coord][*]152[|][url=https://pl165.plemiona.pl/game.php?village=48372&screen=place&target=28454]Wyślij OFF[/url][|]20513[|]0[|]2021-11-29
[b][color=#0e5e5e]19:29:44[/color][/b]-[b][color=#ff0000]00:29:44[/color][/b][|]2021-12-03
[b][color=#0e5e5e]08:00:00[/color][/b]-[b][color=#ff0000]13:00:00[/color][/b][|][coord]688|395[/coord][|][coord]530|335[/coord][*]153[|][url=https://pl165.plemiona.pl/game.php?village=43577&screen=place&target=37611]Wyślij OFF[/url][|]20497[|]0[|]2021-11-29
[b][color=#0e5e5e]19:37:28[/color][/b]-[b][color=#ff0000]00:37:28[/color][/b][|]2021-12-03
[b][color=#0e5e5e]08:00:00[/color][/b]-[b][color=#ff0000]13:00:00[/color][/b][|][coord]680|405[/coord][|][coord]526|336[/coord][*]154[|][url=https://pl165.plemiona.pl/game.php?village=51018&screen=place&target=28033]Wyślij OFF[/url][|]19695[|]0[|]2021-11-29
[b][color=#0e5e5e]19:52:41[/color][/b]-[b][color=#ff0000]00:52:41[/color][/b][|]2021-12-03
[b][color=#0e5e5e]08:00:00[/color][/b]-[b][color=#ff0000]13:00:00[/color][/b][|][coord]692|399[/coord][|][coord]533|344[/coord][*]155[|][url=https://pl165.plemiona.pl/game.php?village=8170&screen=place&target=34405]Wyślij OFF[/url][|]19334[|]0[|]2021-11-29
[b][color=#0e5e5e]19:52:52[/color][/b]-[b][color=#ff0000]00:52:52[/color][/b][|]2021-12-03
[b][color=#0e5e5e]08:00:00[/color][/b]-[b][color=#ff0000]13:00:00[/color][/b][|][coord]588|467[/coord][|][coord]508|319[/coord][*]156[|][url=https://pl165.plemiona.pl/game.php?village=40086&screen=place&target=26354]Wyślij OFF[/url][|]20497[|]0[|]2021-11-30
[b][color=#0e5e5e]07:06:04[/color][/b]-[b][color=#ff0000]12:06:04[/color][/b][|]2021-12-03
[b][color=#0e5e5e]08:00:00[/color][/b]-[b][color=#ff0000]13:00:00[/color][/b][|][coord]677|413[/coord][|][coord]546|349[/coord][/table]





[table][**][||]WYŚLIJ[||]OFF[||]GRUBE[||]WYSYŁKA[||]WEJŚCIE[||]Z WIOSKI[||]CEL[/**][*]157[|][url=https://pl165.plemiona.pl/game.php?village=47950&screen=place&target=28399]Wyślij OFF[/url][|]20513[|]0[|]2021-11-30
[b][color=#0e5e5e]07:50:44[/color][/b]-[b][color=#ff0000]12:50:44[/color][/b][|]2021-12-03
[b][color=#0e5e5e]08:00:00[/color][/b]-[b][color=#ff0000]13:00:00[/color][/b][|][coord]681|400[/coord][|][coord]548|344[/coord][*]158[|][url=https://pl165.plemiona.pl/game.php?village=15489&screen=place&target=33722]Wyślij OFF[/url][|]12174[|]0[|]2021-11-30
[b][color=#0e5e5e]07:51:59[/color][/b]-[b][color=#ff0000]12:51:59[/color][/b][|]2021-12-03
[b][color=#0e5e5e]08:00:00[/color][/b]-[b][color=#ff0000]13:00:00[/color][/b][|][coord]618|456[/coord][|][coord]541|334[/coord][*]159[|][url=https://pl165.plemiona.pl/game.php?village=15586&screen=place&target=23320]Wyślij OFF[/url][|]19302[|]0[|]2021-11-30
[b][color=#0e5e5e]07:53:58[/color][/b]-[b][color=#ff0000]12:53:58[/color][/b][|]2021-12-03
[b][color=#0e5e5e]08:00:00[/color][/b]-[b][color=#ff0000]13:00:00[/color][/b][|][coord]620|466[/coord][|][coord]533|351[/coord][*]160[|][url=https://pl165.plemiona.pl/game.php?village=45981&screen=place&target=22478]Wyślij OFF[/url][|]20513[|]0[|]2021-11-30
[b][color=#0e5e5e]07:53:58[/color][/b]-[b][color=#ff0000]12:53:58[/color][/b][|]2021-12-03
[b][color=#0e5e5e]08:00:00[/color][/b]-[b][color=#ff0000]13:00:00[/color][/b][|][coord]680|402[/coord][|][coord]543|357[/coord][*]161[|][url=https://pl165.plemiona.pl/game.php?village=50730&screen=place&target=20975]Wyślij OFF[/url][|]20513[|]0[|]2021-11-30
[b][color=#0e5e5e]07:57:55[/color][/b]-[b][color=#ff0000]12:57:55[/color][/b][|]2021-12-03
[b][color=#0e5e5e]08:00:00[/color][/b]-[b][color=#ff0000]13:00:00[/color][/b][|][coord]685|395[/coord][|][coord]545|361[/coord][*]162[|][url=https://pl165.plemiona.pl/game.php?village=11905&screen=place&target=31211]Wyślij OFF[/url][|]14285[|]0[|]2021-11-30
[b][color=#0e5e5e]08:12:00[/color][/b]-[b][color=#ff0000]13:12:00[/color][/b][|]2021-12-03
[b][color=#0e5e5e]08:00:00[/color][/b]-[b][color=#ff0000]13:00:00[/color][/b][|][coord]605|466[/coord][|][coord]544|336[/coord][*]163[|][url=https://pl165.plemiona.pl/game.php?village=15935&screen=place&target=52925]Wyślij OFF[/url][|]20513[|]0[|]2021-11-30
[b][color=#0e5e5e]08:13:59[/color][/b]-[b][color=#ff0000]13:13:59[/color][/b][|]2021-12-03
[b][color=#0e5e5e]08:00:00[/color][/b]-[b][color=#ff0000]13:00:00[/color][/b][|][coord]617|456[/coord][|][coord]526|345[/coord][*]164[|][url=https://pl165.plemiona.pl/game.php?village=5318&screen=place&target=26918]Wyślij OFF[/url][|]14668[|]0[|]2021-11-30
[b][color=#0e5e5e]08:18:22[/color][/b]-[b][color=#ff0000]13:18:22[/color][/b][|]2021-12-03
[b][color=#0e5e5e]08:00:00[/color][/b]-[b][color=#ff0000]13:00:00[/color][/b][|][coord]585|461[/coord][|][coord]513|337[/coord][*]165[|][url=https://pl165.plemiona.pl/game.php?village=50572&screen=place&target=12778]Wyślij OFF[/url][|]20513[|]0[|]2021-11-30
[b][color=#0e5e5e]08:23:18[/color][/b]-[b][color=#ff0000]13:23:18[/color][/b][|]2021-12-03
[b][color=#0e5e5e]08:00:00[/color][/b]-[b][color=#ff0000]13:00:00[/color][/b][|][coord]687|403[/coord][|][coord]544|395[/coord][*]166[|][url=https://pl165.plemiona.pl/game.php?village=17030&screen=place&target=28892]Wyślij OFF[/url][|]12897[|]0[|]2021-11-30
[b][color=#0e5e5e]08:41:40[/color][/b]-[b][color=#ff0000]13:41:40[/color][/b][|]2021-12-03
[b][color=#0e5e5e]08:00:00[/color][/b]-[b][color=#ff0000]13:00:00[/color][/b][|][coord]622|454[/coord][|][coord]535|341[/coord][*]167[|][url=https://pl165.plemiona.pl/game.php?village=14721&screen=place&target=28033]Wyślij OFF[/url][|]24487[|]0[|]2021-11-30
[b][color=#0e5e5e]08:50:56[/color][/b]-[b][color=#ff0000]13:50:56[/color][/b][|]2021-12-03
[b][color=#0e5e5e]08:00:00[/color][/b]-[b][color=#ff0000]13:00:00[/color][/b][|][coord]614|461[/coord][|][coord]533|344[/coord][*]168[|][url=https://pl165.plemiona.pl/game.php?village=42941&screen=place&target=23741]Wyślij OFF[/url][|]23705[|]0[|]2021-11-30
[b][color=#0e5e5e]08:52:43[/color][/b]-[b][color=#ff0000]13:52:43[/color][/b][|]2021-12-03
[b][color=#0e5e5e]08:00:00[/color][/b]-[b][color=#ff0000]13:00:00[/color][/b][|][coord]672|404[/coord][|][coord]540|351[/coord][*]169[|][url=https://pl165.plemiona.pl/game.php?village=18520&screen=place&target=21503]Wyślij OFF[/url][|]20513[|]0[|]2021-11-30
[b][color=#0e5e5e]09:17:09[/color][/b]-[b][color=#ff0000]14:17:09[/color][/b][|]2021-12-03
[b][color=#0e5e5e]08:00:00[/color][/b]-[b][color=#ff0000]13:00:00[/color][/b][|][coord]631|459[/coord][|][coord]530|360[/coord][*]170[|][url=https://pl165.plemiona.pl/game.php?village=7602&screen=place&target=26014]Wyślij OFF[/url][|]20513[|]0[|]2021-11-30
[b][color=#0e5e5e]09:30:32[/color][/b]-[b][color=#ff0000]14:30:32[/color][/b][|]2021-12-03
[b][color=#0e5e5e]08:00:00[/color][/b]-[b][color=#ff0000]13:00:00[/color][/b][|][coord]589|468[/coord][|][coord]515|348[/coord][*]171[|][url=https://pl165.plemiona.pl/game.php?village=12901&screen=place&target=24087]Wyślij OFF[/url][|]20513[|]0[|]2021-11-30
[b][color=#0e5e5e]09:40:07[/color][/b]-[b][color=#ff0000]14:40:07[/color][/b][|]2021-12-03
[b][color=#0e5e5e]08:00:00[/color][/b]-[b][color=#ff0000]13:00:00[/color][/b][|][coord]604|464[/coord][|][coord]523|349[/coord][*]172[|][url=https://pl165.plemiona.pl/game.php?village=16285&screen=place&target=23407]Wyślij OFF[/url][|]24487[|]0[|]2021-11-30
[b][color=#0e5e5e]09:41:56[/color][/b]-[b][color=#ff0000]14:41:56[/color][/b][|]2021-12-03
[b][color=#0e5e5e]08:00:00[/color][/b]-[b][color=#ff0000]13:00:00[/color][/b][|][coord]624|465[/coord][|][coord]539|353[/coord][*]173[|][url=https://pl165.plemiona.pl/game.php?village=3968&screen=place&target=28952]Wyślij OFF[/url][|]20022[|]0[|]2021-11-30
[b][color=#0e5e5e]09:47:10[/color][/b]-[b][color=#ff0000]14:47:10[/color][/b][|]2021-12-03
[b][color=#0e5e5e]08:00:00[/color][/b]-[b][color=#ff0000]13:00:00[/color][/b][|][coord]580|462[/coord][|][coord]518|336[/coord][*]174[|][url=https://pl165.plemiona.pl/game.php?village=47912&screen=place&target=439]Wyślij OFF[/url][|]20513[|]0[|]2021-11-30
[b][color=#0e5e5e]09:51:20[/color][/b]-[b][color=#ff0000]14:51:20[/color][/b][|]2021-12-03
[b][color=#0e5e5e]08:00:00[/color][/b]-[b][color=#ff0000]13:00:00[/color][/b][|][coord]685|402[/coord][|][coord]545|393[/coord][*]175[|][url=https://pl165.plemiona.pl/game.php?village=7062&screen=place&target=29776]Wyślij OFF[/url][|]20513[|]0[|]2021-11-30
[b][color=#0e5e5e]09:56:28[/color][/b]-[b][color=#ff0000]14:56:28[/color][/b][|]2021-12-03
[b][color=#0e5e5e]08:00:00[/color][/b]-[b][color=#ff0000]13:00:00[/color][/b][|][coord]581|463[/coord][|][coord]534|331[/coord][*]176[|][url=https://pl165.plemiona.pl/game.php?village=43074&screen=place&target=14928]Wyślij OFF[/url][|]22732[|]0[|]2021-11-30
[b][color=#0e5e5e]10:28:42[/color][/b]-[b][color=#ff0000]15:28:42[/color][/b][|]2021-12-03
[b][color=#0e5e5e]08:00:00[/color][/b]-[b][color=#ff0000]13:00:00[/color][/b][|][coord]672|400[/coord][|][coord]534|383[/coord][*]177[|][url=https://pl165.plemiona.pl/game.php?village=9111&screen=place&target=29864]Wyślij OFF[/url][|]17132[|]0[|]2021-11-30
[b][color=#0e5e5e]10:38:45[/color][/b]-[b][color=#ff0000]15:38:45[/color][/b][|]2021-12-03
[b][color=#0e5e5e]08:00:00[/color][/b]-[b][color=#ff0000]13:00:00[/color][/b][|][coord]586|460[/coord][|][coord]528|334[/coord][*]178[|][url=https://pl165.plemiona.pl/game.php?village=9632&screen=place&target=30780]Wyślij OFF[/url][|]20507[|]0[|]2021-11-30
[b][color=#0e5e5e]10:42:39[/color][/b]-[b][color=#ff0000]15:42:39[/color][/b][|]2021-12-03
[b][color=#0e5e5e]08:00:00[/color][/b]-[b][color=#ff0000]13:00:00[/color][/b][|][coord]592|465[/coord][|][coord]544|335[/coord][*]179[|][url=https://pl165.plemiona.pl/game.php?village=11832&screen=place&target=24382]Wyślij OFF[/url][|]20513[|]0[|]2021-11-30
[b][color=#0e5e5e]10:42:52[/color][/b]-[b][color=#ff0000]15:42:52[/color][/b][|]2021-12-03
[b][color=#0e5e5e]08:00:00[/color][/b]-[b][color=#ff0000]13:00:00[/color][/b][|][coord]603|468[/coord][|][coord]532|349[/coord][*]180[|][url=https://pl165.plemiona.pl/game.php?village=44805&screen=place&target=19738]Wyślij OFF[/url][|]20513[|]0[|]2021-11-30
[b][color=#0e5e5e]11:03:48[/color][/b]-[b][color=#ff0000]16:03:48[/color][/b][|]2021-12-03
[b][color=#0e5e5e]08:00:00[/color][/b]-[b][color=#ff0000]13:00:00[/color][/b][|][coord]678|395[/coord][|][coord]543|367[/coord][*]181[|][url=https://pl165.plemiona.pl/game.php?village=15840&screen=place&target=18539]Wyślij OFF[/url][|]19416[|]0[|]2021-11-30
[b][color=#0e5e5e]11:19:10[/color][/b]-[b][color=#ff0000]16:19:10[/color][/b][|]2021-12-03
[b][color=#0e5e5e]08:00:00[/color][/b]-[b][color=#ff0000]13:00:00[/color][/b][|][coord]624|468[/coord][|][coord]532|366[/coord][*]182[|][url=https://pl165.plemiona.pl/game.php?village=16131&screen=place&target=28662]Wyślij OFF[/url][|]20513[|]0[|]2021-11-30
[b][color=#0e5e5e]11:28:15[/color][/b]-[b][color=#ff0000]16:28:15[/color][/b][|]2021-12-03
[b][color=#0e5e5e]08:00:00[/color][/b]-[b][color=#ff0000]13:00:00[/color][/b][|][coord]620|455[/coord][|][coord]547|339[/coord][*]183[|][url=https://pl165.plemiona.pl/game.php?village=2331&screen=place&target=22603]Wyślij OFF[/url][|]20395[|]0[|]2021-11-30
[b][color=#0e5e5e]11:29:53[/color][/b]-[b][color=#ff0000]16:29:53[/color][/b][|]2021-12-03
[b][color=#0e5e5e]08:00:00[/color][/b]-[b][color=#ff0000]13:00:00[/color][/b][|][coord]583|464[/coord][|][coord]500|355[/coord][*]184[|][url=https://pl165.plemiona.pl/game.php?village=42324&screen=place&target=25742]Wyślij OFF[/url][|]20513[|]0[|]2021-11-30
[b][color=#0e5e5e]11:49:19[/color][/b]-[b][color=#ff0000]16:49:19[/color][/b][|]2021-12-03
[b][color=#0e5e5e]08:00:00[/color][/b]-[b][color=#ff0000]13:00:00[/color][/b][|][coord]674|397[/coord][|][coord]546|350[/coord][*]185[|][url=https://pl165.plemiona.pl/game.php?village=42786&screen=place&target=5882]Wyślij OFF[/url][|]20513[|]0[|]2021-11-30
[b][color=#0e5e5e]12:15:28[/color][/b]-[b][color=#ff0000]17:15:28[/color][/b][|]2021-12-03
[b][color=#0e5e5e]08:00:00[/color][/b]-[b][color=#ff0000]13:00:00[/color][/b][|][coord]676|407[/coord][|][coord]542|387[/coord][*]186[|][url=https://pl165.plemiona.pl/game.php?village=9490&screen=place&target=30884]Wyślij OFF[/url][|]20513[|]0[|]2021-11-30
[b][color=#0e5e5e]12:17:28[/color][/b]-[b][color=#ff0000]17:17:28[/color][/b][|]2021-12-03
[b][color=#0e5e5e]08:00:00[/color][/b]-[b][color=#ff0000]13:00:00[/color][/b][|][coord]591|466[/coord][|][coord]544|339[/coord][*]187[|][url=https://pl165.plemiona.pl/game.php?village=44177&screen=place&target=12778]Wyślij OFF[/url][|]20513[|]0[|]2021-11-30
[b][color=#0e5e5e]12:34:54[/color][/b]-[b][color=#ff0000]17:34:54[/color][/b][|]2021-12-03
[b][color=#0e5e5e]08:00:00[/color][/b]-[b][color=#ff0000]13:00:00[/color][/b][|][coord]678|410[/coord][|][coord]544|395[/coord][/table]





[table][**][||]WYŚLIJ[||]OFF[||]GRUBE[||]WYSYŁKA[||]WEJŚCIE[||]Z WIOSKI[||]CEL[/**][*]188[|][url=https://pl165.plemiona.pl/game.php?village=43543&screen=place&target=20793]Wyślij OFF[/url][|]20513[|]0[|]2021-11-30
[b][color=#0e5e5e]12:37:00[/color][/b]-[b][color=#ff0000]17:37:00[/color][/b][|]2021-12-03
[b][color=#0e5e5e]08:00:00[/color][/b]-[b][color=#ff0000]13:00:00[/color][/b][|][coord]672|401[/coord][|][coord]543|362[/coord][*]189[|][url=https://pl165.plemiona.pl/game.php?village=8069&screen=place&target=29444]Wyślij OFF[/url][|]20513[|]0[|]2021-11-30
[b][color=#0e5e5e]12:47:49[/color][/b]-[b][color=#ff0000]17:47:49[/color][/b][|]2021-12-03
[b][color=#0e5e5e]08:00:00[/color][/b]-[b][color=#ff0000]13:00:00[/color][/b][|][coord]588|465[/coord][|][coord]547|337[/coord][*]190[|][url=https://pl165.plemiona.pl/game.php?village=7244&screen=place&target=28488]Wyślij OFF[/url][|]18933[|]0[|]2021-11-30
[b][color=#0e5e5e]12:56:52[/color][/b]-[b][color=#ff0000]17:56:52[/color][/b][|]2021-12-03
[b][color=#0e5e5e]08:00:00[/color][/b]-[b][color=#ff0000]13:00:00[/color][/b][|][coord]582|467[/coord][|][coord]542|339[/coord][*]191[|][url=https://pl165.plemiona.pl/game.php?village=4427&screen=place&target=34550]Wyślij OFF[/url][|]20513[|]0[|]2021-11-30
[b][color=#0e5e5e]13:03:35[/color][/b]-[b][color=#ff0000]18:03:35[/color][/b][|]2021-12-03
[b][color=#0e5e5e]08:00:00[/color][/b]-[b][color=#ff0000]13:00:00[/color][/b][|][coord]580|461[/coord][|][coord]548|331[/coord][*]192[|][url=https://pl165.plemiona.pl/game.php?village=9640&screen=place&target=30639]Wyślij OFF[/url][|]20513[|]0[|]2021-11-30
[b][color=#0e5e5e]13:05:16[/color][/b]-[b][color=#ff0000]18:05:16[/color][/b][|]2021-12-03
[b][color=#0e5e5e]08:00:00[/color][/b]-[b][color=#ff0000]13:00:00[/color][/b][|][coord]591|460[/coord][|][coord]536|338[/coord][*]193[|][url=https://pl165.plemiona.pl/game.php?village=1718&screen=place&target=28802]Wyślij OFF[/url][|]20513[|]0[|]2021-11-30
[b][color=#0e5e5e]13:20:05[/color][/b]-[b][color=#ff0000]18:20:05[/color][/b][|]2021-12-03
[b][color=#0e5e5e]08:00:00[/color][/b]-[b][color=#ff0000]13:00:00[/color][/b][|][coord]588|464[/coord][|][coord]539|340[/coord][*]194[|][url=https://pl165.plemiona.pl/game.php?village=15825&screen=place&target=25732]Wyślij OFF[/url][|]19310[|]0[|]2021-11-30
[b][color=#0e5e5e]13:25:57[/color][/b]-[b][color=#ff0000]18:25:57[/color][/b][|]2021-12-03
[b][color=#0e5e5e]08:00:00[/color][/b]-[b][color=#ff0000]13:00:00[/color][/b][|][coord]619|460[/coord][|][coord]544|350[/coord][*]195[|][url=https://pl165.plemiona.pl/game.php?village=14849&screen=place&target=13809]Wyślij OFF[/url][|]20183[|]0[|]2021-11-30
[b][color=#0e5e5e]15:20:22[/color][/b]-[b][color=#ff0000]20:20:22[/color][/b][|]2021-12-03
[b][color=#0e5e5e]08:00:00[/color][/b]-[b][color=#ff0000]13:00:00[/color][/b][|][coord]617|483[/coord][|][coord]535|383[/coord][*]196[|][url=https://pl165.plemiona.pl/game.php?village=10711&screen=place&target=15037]Wyślij OFF[/url][|]15840[|]0[|]2021-11-30
[b][color=#0e5e5e]15:29:32[/color][/b]-[b][color=#ff0000]20:29:32[/color][/b][|]2021-12-03
[b][color=#0e5e5e]08:00:00[/color][/b]-[b][color=#ff0000]13:00:00[/color][/b][|][coord]602|474[/coord][|][coord]500|395[/coord][*]197[|][url=https://pl165.plemiona.pl/game.php?village=9669&screen=place&target=14896]Wyślij OFF[/url][|]20483[|]0[|]2021-11-30
[b][color=#0e5e5e]15:53:20[/color][/b]-[b][color=#ff0000]20:53:20[/color][/b][|]2021-12-03
[b][color=#0e5e5e]08:00:00[/color][/b]-[b][color=#ff0000]13:00:00[/color][/b][|][coord]617|481[/coord][|][coord]532|385[/coord][*]198[|][url=https://pl165.plemiona.pl/game.php?village=15538&screen=place&target=18416]Wyślij OFF[/url][|]19302[|]0[|]2021-11-30
[b][color=#0e5e5e]16:16:48[/color][/b]-[b][color=#ff0000]21:16:48[/color][/b][|]2021-12-03
[b][color=#0e5e5e]08:00:00[/color][/b]-[b][color=#ff0000]13:00:00[/color][/b][|][coord]617|470[/coord][|][coord]538|370[/coord][*]199[|][url=https://pl165.plemiona.pl/game.php?village=11712&screen=place&target=18669]Wyślij OFF[/url][|]20260[|]0[|]2021-11-30
[b][color=#0e5e5e]16:23:59[/color][/b]-[b][color=#ff0000]21:23:59[/color][/b][|]2021-12-03
[b][color=#0e5e5e]08:00:00[/color][/b]-[b][color=#ff0000]13:00:00[/color][/b][|][coord]606|472[/coord][|][coord]530|370[/coord][*]200[|][url=https://pl165.plemiona.pl/game.php?village=18885&screen=place&target=12359]Wyślij OFF[/url][|]20513[|]0[|]2021-11-30
[b][color=#0e5e5e]16:41:50[/color][/b]-[b][color=#ff0000]21:41:50[/color][/b][|]2021-12-03
[b][color=#0e5e5e]08:00:00[/color][/b]-[b][color=#ff0000]13:00:00[/color][/b][|][coord]628|466[/coord][|][coord]526|391[/coord][*]201[|][url=https://pl165.plemiona.pl/game.php?village=12771&screen=place&target=22369]Wyślij OFF[/url][|]20478[|]0[|]2021-11-30
[b][color=#0e5e5e]16:54:39[/color][/b]-[b][color=#ff0000]21:54:39[/color][/b][|]2021-12-03
[b][color=#0e5e5e]08:00:00[/color][/b]-[b][color=#ff0000]13:00:00[/color][/b][|][coord]600|469[/coord][|][coord]540|358[/coord][*]202[|][url=https://pl165.plemiona.pl/game.php?village=16918&screen=place&target=18416]Wyślij OFF[/url][|]20513[|]0[|]2021-11-30
[b][color=#0e5e5e]17:03:49[/color][/b]-[b][color=#ff0000]22:03:49[/color][/b][|]2021-12-03
[b][color=#0e5e5e]08:00:00[/color][/b]-[b][color=#ff0000]13:00:00[/color][/b][|][coord]626|460[/coord][|][coord]538|370[/coord][*]203[|][url=https://pl165.plemiona.pl/game.php?village=9158&screen=place&target=28196]Wyślij OFF[/url][|]19302[|]0[|]2021-11-30
[b][color=#0e5e5e]17:13:43[/color][/b]-[b][color=#ff0000]22:13:43[/color][/b][|]2021-12-03
[b][color=#0e5e5e]08:00:00[/color][/b]-[b][color=#ff0000]13:00:00[/color][/b][|][coord]587|459[/coord][|][coord]547|340[/coord][*]204[|][url=https://pl165.plemiona.pl/game.php?village=12383&screen=place&target=14337]Wyślij OFF[/url][|]20513[|]0[|]2021-11-30
[b][color=#0e5e5e]17:34:41[/color][/b]-[b][color=#ff0000]22:34:41[/color][/b][|]2021-12-03
[b][color=#0e5e5e]08:00:00[/color][/b]-[b][color=#ff0000]13:00:00[/color][/b][|][coord]607|474[/coord][|][coord]526|379[/coord][*]205[|][url=https://pl165.plemiona.pl/game.php?village=14302&screen=place&target=14177]Wyślij OFF[/url][|]22913[|]0[|]2021-11-30
[b][color=#0e5e5e]18:40:45[/color][/b]-[b][color=#ff0000]23:40:45[/color][/b][|]2021-12-03
[b][color=#0e5e5e]08:00:00[/color][/b]-[b][color=#ff0000]13:00:00[/color][/b][|][coord]616|490[/coord][|][coord]545|390[/coord][*]206[|][url=https://pl165.plemiona.pl/game.php?village=17776&screen=place&target=16184]Wyślij OFF[/url][|]20513[|]0[|]2021-11-30
[b][color=#0e5e5e]19:09:07[/color][/b]-[b][color=#ff0000]00:09:07[/color][/b][|]2021-12-03
[b][color=#0e5e5e]08:00:00[/color][/b]-[b][color=#ff0000]13:00:00[/color][/b][|][coord]626|465[/coord][|][coord]537|382[/coord][*]207[|][url=https://pl165.plemiona.pl/game.php?village=11142&screen=place&target=3731]Wyślij OFF[/url][|]20513[|]0[|]2021-11-30
[b][color=#0e5e5e]19:41:33[/color][/b]-[b][color=#ff0000]00:41:33[/color][/b][|]2021-12-03
[b][color=#0e5e5e]08:00:00[/color][/b]-[b][color=#ff0000]13:00:00[/color][/b][|][coord]603|473[/coord][|][coord]525|381[/coord][*]208[|][url=https://pl165.plemiona.pl/game.php?village=9628&screen=place&target=3048]Wyślij OFF[/url][|]22005[|]0[|]2021-12-01
[b][color=#0e5e5e]07:27:32[/color][/b]-[b][color=#ff0000]12:27:32[/color][/b][|]2021-12-03
[b][color=#0e5e5e]08:00:00[/color][/b]-[b][color=#ff0000]13:00:00[/color][/b][|][coord]589|466[/coord][|][coord]525|393[/coord][/table]

[url=http://plemiona-planer.pl/pl/overview/zHub960l0rbzizcYx4p6JsO3bZKTiWHDSau090lHJtk]Link do Twoich celów na plemiona-planer.pl.[/url]


[table][**][||]WYŚLIJ[||]OFF[||]GRUBE[||]WYSYŁKA[||]WEJŚCIE[||]Z WIOSKI[||]CEL[/**][*]1[|][url=https://pl165.plemiona.pl/game.php?village=16068&screen=place&target=35069]Wyślij OFF[/url][|]20513[|]0[|]2021-11-26
[b][color=#0e5e5e]07:12:21[/color][/b]-[b][color=#ff0000]11:12:21[/color][/b][|]2021-12-01
[b][color=#0e5e5e]08:00:00[/color][/b]-[b][color=#ff0000]12:00:00[/color][/b][|][coord]621|543[/coord][|][coord]519|324[/coord][*]2[|][url=https://pl165.plemiona.pl/game.php?village=20314&screen=place&target=35069]Wyślij OFF[/url][|]20497[|]0[|]2021-11-26
[b][color=#0e5e5e]07:28:27[/color][/b]-[b][color=#ff0000]11:28:27[/color][/b][|]2021-12-01
[b][color=#0e5e5e]08:00:00[/color][/b]-[b][color=#ff0000]12:00:00[/color][/b][|][coord]628|539[/coord][|][coord]519|324[/coord][/table]
